<html>
<head><meta charset="utf-8" /></head>
<body>
    <div>
        
                <script type="text/javascript">window.PlotlyConfig = {MathJaxConfig: 'local'};</script>
        <script src="https://cdn.plot.ly/plotly-latest.min.js"></script>    
            <div id="6efbb757-41f6-4c0b-8ea5-cc80178cec57" class="plotly-graph-div" style="height:100%; width:100%;"></div>
            <script type="text/javascript">
                
                    window.PLOTLYENV=window.PLOTLYENV || {};
                    
                if (document.getElementById("6efbb757-41f6-4c0b-8ea5-cc80178cec57")) {
                    Plotly.newPlot(
                        '6efbb757-41f6-4c0b-8ea5-cc80178cec57',
                        [{"hoverinfo": "none", "type": "histogram", "x": [2203, 2158, 2091, 2078, 2047, 2021, 2016, 1988, 1981, 1978, 1964, 1961, 1956, 1955, 1954, 1951, 1949, 1945, 1944, 1931, 1902, 1885, 1861, 1842, 1840, 1836, 1832, 1830, 1823, 1823, 1805, 1805, 1780, 1765, 1759, 1759, 1758, 1755, 1749, 1747, 1746, 1746, 1736, 1735, 1732, 1724, 1721, 1720, 1702, 1702, 1689, 1689, 1689, 1687, 1679, 1678, 1672, 1671, 1670, 1670, 1665, 1664, 1664, 1662, 1656, 1656, 1655, 1650, 1649, 1642, 1642, 1639, 1636, 1633, 1630, 1630, 1626, 1625, 1620, 1619, 1609, 1606, 1606, 1604, 1603, 1602, 1601, 1597, 1591, 1589, 1586, 1585, 1582, 1579, 1579, 1577, 1576, 1575, 1574, 1571, 1567, 1567, 1564, 1564, 1562, 1559, 1557, 1557, 1552, 1549, 1549, 1544, 1542, 1542, 1540, 1539, 1531, 1531, 1528, 1526, 1526, 1525, 1524, 1524, 1523, 1523, 1521, 1519, 1518, 1517, 1512, 1509, 1509, 1509, 1507, 1506, 1506, 1504, 1499, 1498, 1498, 1496, 1492, 1492, 1490, 1489, 1488, 1487, 1484, 1484, 1482, 1482, 1482, 1481, 1480, 1474, 1474, 1473, 1473, 1469, 1467, 1464, 1463, 1462, 1461, 1461, 1460, 1458, 1457, 1456, 1455, 1453, 1448, 1446, 1446, 1445, 1443, 1443, 1440, 1437, 1437, 1435, 1434, 1432, 1429, 1428, 1426, 1424, 1420, 1418, 1417, 1416, 1414, 1412, 1408, 1408, 1407, 1404, 1402, 1402, 1401, 1400, 1399, 1399, 1399, 1396, 1394, 1394, 1394, 1392, 1392, 1392, 1392, 1391, 1390, 1388, 1387, 1386, 1384, 1383, 1382, 1381, 1381, 1381, 1381, 1380, 1380, 1380, 1379, 1379, 1377, 1377, 1377, 1376, 1375, 1374, 1374, 1372, 1371, 1370, 1368, 1368, 1366, 1366, 1366, 1366, 1365, 1365, 1364, 1363, 1363, 1363, 1362, 1361, 1360, 1360, 1360, 1358, 1356, 1356, 1356, 1355, 1355, 1354, 1353, 1353, 1353, 1353, 1350, 1350, 1349, 1348, 1348, 1347, 1346, 1346, 1342, 1341, 1340, 1339, 1339, 1338, 1337, 1337, 1337, 1336, 1336, 1335, 1332, 1331, 1329, 1329, 1323, 1323, 1322, 1321, 1321, 1321, 1321, 1320, 1319, 1319, 1316, 1314, 1314, 1313, 1313, 1313, 1313, 1313, 1310, 1309, 1308, 1306, 1306, 1306, 1304, 1304, 1302, 1301, 1301, 1300, 1299, 1296, 1295, 1294, 1294, 1291, 1291, 1290, 1290, 1288, 1288, 1288, 1288, 1288, 1288, 1287, 1286, 1285, 1284, 1283, 1282, 1280, 1280, 1279, 1276, 1275, 1274, 1272, 1271, 1271, 1271, 1270, 1270, 1269, 1269, 1269, 1268, 1266, 1265, 1264, 1262, 1262, 1261, 1260, 1260, 1260, 1258, 1256, 1256, 1255, 1254, 1254, 1254, 1253, 1253, 1252, 1252, 1252, 1251, 1251, 1251, 1249, 1249, 1248, 1247, 1246, 1245, 1243, 1241, 1240, 1240, 1240, 1239, 1239, 1239, 1238, 1238, 1237, 1237, 1236, 1236, 1235, 1234, 1233, 1233, 1233, 1232, 1232, 1230, 1230, 1230, 1229, 1229, 1228, 1228, 1228, 1227, 1227, 1226, 1226, 1225, 1224, 1223, 1222, 1222, 1222, 1222, 1221, 1220, 1219, 1219, 1217, 1217, 1216, 1215, 1215, 1214, 1214, 1214, 1213, 1213, 1212, 1211, 1210, 1210, 1210, 1210, 1210, 1208, 1208, 1208, 1207, 1207, 1207, 1207, 1206, 1206, 1205, 1205, 1203, 1203, 1202, 1202, 1201, 1201, 1201, 1200, 1198, 1198, 1197, 1197, 1197, 1195, 1195, 1195, 1194, 1194, 1193, 1192, 1190, 1190, 1189, 1189, 1187, 1187, 1186, 1185, 1184, 1183, 1183, 1183, 1183, 1182, 1182, 1181, 1181, 1181, 1180, 1180, 1180, 1180, 1179, 1179, 1178, 1178, 1177, 1177, 1176, 1175, 1175, 1175, 1174, 1173, 1173, 1173, 1171, 1171, 1171, 1170, 1170, 1169, 1169, 1167, 1165, 1165, 1164, 1164, 1164, 1164, 1164, 1163, 1160, 1159, 1159, 1159, 1159, 1158, 1158, 1158, 1157, 1157, 1156, 1156, 1155, 1155, 1153, 1152, 1152, 1150, 1149, 1147, 1146, 1146, 1144, 1144, 1144, 1141, 1141, 1141, 1141, 1141, 1141, 1139, 1138, 1138, 1137, 1136, 1136, 1136, 1136, 1135, 1135, 1134, 1134, 1134, 1134, 1132, 1131, 1131, 1130, 1128, 1128, 1126, 1123, 1123, 1123, 1123, 1122, 1121, 1120, 1119, 1119, 1118, 1117, 1117, 1117, 1116, 1116, 1116, 1116, 1115, 1114, 1114, 1113, 1113, 1112, 1110, 1110, 1109, 1107, 1107, 1107, 1106, 1105, 1104, 1103, 1103, 1101, 1101, 1101, 1100, 1100, 1099, 1097, 1097, 1097, 1097, 1094, 1094, 1093, 1092, 1092, 1092, 1091, 1090, 1090, 1090, 1089, 1089, 1089, 1089, 1088, 1088, 1088, 1087, 1086, 1086, 1086, 1085, 1085, 1084, 1084, 1084, 1083, 1082, 1081, 1080, 1079, 1078, 1078, 1078, 1077, 1077, 1076, 1076, 1075, 1075, 1074, 1074, 1074, 1074, 1073, 1072, 1072, 1071, 1070, 1070, 1070, 1069, 1068, 1068, 1067, 1067, 1067, 1067, 1066, 1066, 1066, 1066, 1066, 1065, 1064, 1064, 1064, 1064, 1063, 1062, 1062, 1062, 1059, 1058, 1058, 1057, 1057, 1056, 1056, 1056, 1056, 1055, 1055, 1054, 1053, 1053, 1053, 1053, 1052, 1052, 1052, 1050, 1050, 1050, 1049, 1048, 1047, 1047, 1046, 1045, 1045, 1045, 1045, 1045, 1045, 1044, 1043, 1042, 1042, 1042, 1041, 1041, 1040, 1039, 1039, 1039, 1038, 1037, 1037, 1037, 1036, 1036, 1035, 1035, 1034, 1034, 1031, 1031, 1031, 1030, 1029, 1029, 1029, 1028, 1028, 1027, 1026, 1026, 1025, 1025, 1024, 1023, 1023, 1022, 1022, 1021, 1019, 1018, 1018, 1018, 1018, 1017, 1017, 1015, 1015, 1015, 1014, 1013, 1013, 1013, 1012, 1011, 1011, 1010, 1010, 1010, 1009, 1009, 1009, 1007, 1007, 1004, 1002, 1002, 1001, 1001, 1001, 1000, 999, 999, 999, 998, 998, 998, 997, 997, 996, 996, 995, 995, 994, 994, 994, 993, 992, 992, 992, 991, 990, 989, 989, 989, 988, 988, 988, 987, 987, 987, 986, 986, 985, 984, 984, 984, 983, 983, 983, 982, 981, 979, 978, 977, 977, 977, 977, 976, 975, 974, 974, 974, 973, 973, 973, 972, 972, 971, 970, 970, 969, 969, 968, 968, 968, 965, 963, 963, 963, 963, 962, 961, 961, 961, 961, 959, 959, 958, 958, 958, 957, 957, 957, 957, 956, 955, 954, 954, 953, 952, 952, 952, 950, 950, 950, 950, 948, 948, 948, 947, 946, 945, 945, 945, 945, 944, 943, 943, 943, 943, 943, 942, 941, 941, 939, 938, 937, 937, 937, 937, 935, 934, 934, 932, 931, 931, 930, 928, 928, 928, 928, 926, 925, 925, 925, 923, 923, 923, 922, 921, 921, 920, 920, 920, 919, 919, 919, 918, 918, 917, 917, 916, 915, 914, 914, 913, 912, 912, 912, 911, 911, 911, 910, 910, 909, 908, 908, 907, 907, 904, 902, 902, 901, 900, 900, 900, 899, 899, 898, 897, 895, 894, 893, 893, 892, 892, 889, 888, 887, 886, 886, 885, 884, 883, 882, 879, 877, 877, 877, 877, 877, 877, 875, 875, 875, 875, 874, 874, 874, 872, 872, 871, 870, 870, 869, 869, 868, 868, 867, 867, 867, 867, 866, 866, 864, 864, 864, 863, 861, 860, 859, 859, 858, 857, 857, 855, 855, 854, 853, 853, 851, 851, 850, 850, 849, 849, 848, 848, 847, 847, 846, 845, 843, 843, 842, 842, 841, 841, 841, 840, 840, 840, 840, 838, 837, 835, 834, 832, 832, 828, 827, 826, 826, 825, 825, 822, 822, 822, 822, 817, 816, 815, 814, 813, 811, 809, 809, 806, 805, 804, 804, 804, 803, 802, 802, 801, 801, 800, 799, 797, 795, 793, 792, 792, 792, 790, 789, 787, 785, 784, 784, 781, 780, 776, 775, 774, 773, 772, 771, 768, 767, 766, 760, 760, 758, 758, 757, 752, 751, 750, 750, 740, 735, 735, 733, 732, 729, 727, 726, 719, 719, 716, 713, 711, 707, 706, 700, 695, 694, 683, 681, 678, 673, 673, 671, 670, 667, 663, 662, 661, 657, 657, 656, 649, 640, 628, 621, 616, 608, 606, 606, 603, 600, 594, 579, 573, 568, 567, 558, 540, 522, 517, 497, 478]}, {"hovertemplate": "Elo: %{x:f}<br>In the top %{y:f}%<extra></extra>", "mode": "lines", "opacity": 0, "type": "scatter", "x": [2203, 2158, 2091, 2078, 2047, 2021, 2016, 1988, 1981, 1978, 1964, 1961, 1956, 1955, 1954, 1951, 1949, 1945, 1944, 1931, 1902, 1885, 1861, 1842, 1840, 1836, 1832, 1830, 1823, 1823, 1805, 1805, 1780, 1765, 1759, 1759, 1758, 1755, 1749, 1747, 1746, 1746, 1736, 1735, 1732, 1724, 1721, 1720, 1702, 1702, 1689, 1689, 1689, 1687, 1679, 1678, 1672, 1671, 1670, 1670, 1665, 1664, 1664, 1662, 1656, 1656, 1655, 1650, 1649, 1642, 1642, 1639, 1636, 1633, 1630, 1630, 1626, 1625, 1620, 1619, 1609, 1606, 1606, 1604, 1603, 1602, 1601, 1597, 1591, 1589, 1586, 1585, 1582, 1579, 1579, 1577, 1576, 1575, 1574, 1571, 1567, 1567, 1564, 1564, 1562, 1559, 1557, 1557, 1552, 1549, 1549, 1544, 1542, 1542, 1540, 1539, 1531, 1531, 1528, 1526, 1526, 1525, 1524, 1524, 1523, 1523, 1521, 1519, 1518, 1517, 1512, 1509, 1509, 1509, 1507, 1506, 1506, 1504, 1499, 1498, 1498, 1496, 1492, 1492, 1490, 1489, 1488, 1487, 1484, 1484, 1482, 1482, 1482, 1481, 1480, 1474, 1474, 1473, 1473, 1469, 1467, 1464, 1463, 1462, 1461, 1461, 1460, 1458, 1457, 1456, 1455, 1453, 1448, 1446, 1446, 1445, 1443, 1443, 1440, 1437, 1437, 1435, 1434, 1432, 1429, 1428, 1426, 1424, 1420, 1418, 1417, 1416, 1414, 1412, 1408, 1408, 1407, 1404, 1402, 1402, 1401, 1400, 1399, 1399, 1399, 1396, 1394, 1394, 1394, 1392, 1392, 1392, 1392, 1391, 1390, 1388, 1387, 1386, 1384, 1383, 1382, 1381, 1381, 1381, 1381, 1380, 1380, 1380, 1379, 1379, 1377, 1377, 1377, 1376, 1375, 1374, 1374, 1372, 1371, 1370, 1368, 1368, 1366, 1366, 1366, 1366, 1365, 1365, 1364, 1363, 1363, 1363, 1362, 1361, 1360, 1360, 1360, 1358, 1356, 1356, 1356, 1355, 1355, 1354, 1353, 1353, 1353, 1353, 1350, 1350, 1349, 1348, 1348, 1347, 1346, 1346, 1342, 1341, 1340, 1339, 1339, 1338, 1337, 1337, 1337, 1336, 1336, 1335, 1332, 1331, 1329, 1329, 1323, 1323, 1322, 1321, 1321, 1321, 1321, 1320, 1319, 1319, 1316, 1314, 1314, 1313, 1313, 1313, 1313, 1313, 1310, 1309, 1308, 1306, 1306, 1306, 1304, 1304, 1302, 1301, 1301, 1300, 1299, 1296, 1295, 1294, 1294, 1291, 1291, 1290, 1290, 1288, 1288, 1288, 1288, 1288, 1288, 1287, 1286, 1285, 1284, 1283, 1282, 1280, 1280, 1279, 1276, 1275, 1274, 1272, 1271, 1271, 1271, 1270, 1270, 1269, 1269, 1269, 1268, 1266, 1265, 1264, 1262, 1262, 1261, 1260, 1260, 1260, 1258, 1256, 1256, 1255, 1254, 1254, 1254, 1253, 1253, 1252, 1252, 1252, 1251, 1251, 1251, 1249, 1249, 1248, 1247, 1246, 1245, 1243, 1241, 1240, 1240, 1240, 1239, 1239, 1239, 1238, 1238, 1237, 1237, 1236, 1236, 1235, 1234, 1233, 1233, 1233, 1232, 1232, 1230, 1230, 1230, 1229, 1229, 1228, 1228, 1228, 1227, 1227, 1226, 1226, 1225, 1224, 1223, 1222, 1222, 1222, 1222, 1221, 1220, 1219, 1219, 1217, 1217, 1216, 1215, 1215, 1214, 1214, 1214, 1213, 1213, 1212, 1211, 1210, 1210, 1210, 1210, 1210, 1208, 1208, 1208, 1207, 1207, 1207, 1207, 1206, 1206, 1205, 1205, 1203, 1203, 1202, 1202, 1201, 1201, 1201, 1200, 1198, 1198, 1197, 1197, 1197, 1195, 1195, 1195, 1194, 1194, 1193, 1192, 1190, 1190, 1189, 1189, 1187, 1187, 1186, 1185, 1184, 1183, 1183, 1183, 1183, 1182, 1182, 1181, 1181, 1181, 1180, 1180, 1180, 1180, 1179, 1179, 1178, 1178, 1177, 1177, 1176, 1175, 1175, 1175, 1174, 1173, 1173, 1173, 1171, 1171, 1171, 1170, 1170, 1169, 1169, 1167, 1165, 1165, 1164, 1164, 1164, 1164, 1164, 1163, 1160, 1159, 1159, 1159, 1159, 1158, 1158, 1158, 1157, 1157, 1156, 1156, 1155, 1155, 1153, 1152, 1152, 1150, 1149, 1147, 1146, 1146, 1144, 1144, 1144, 1141, 1141, 1141, 1141, 1141, 1141, 1139, 1138, 1138, 1137, 1136, 1136, 1136, 1136, 1135, 1135, 1134, 1134, 1134, 1134, 1132, 1131, 1131, 1130, 1128, 1128, 1126, 1123, 1123, 1123, 1123, 1122, 1121, 1120, 1119, 1119, 1118, 1117, 1117, 1117, 1116, 1116, 1116, 1116, 1115, 1114, 1114, 1113, 1113, 1112, 1110, 1110, 1109, 1107, 1107, 1107, 1106, 1105, 1104, 1103, 1103, 1101, 1101, 1101, 1100, 1100, 1099, 1097, 1097, 1097, 1097, 1094, 1094, 1093, 1092, 1092, 1092, 1091, 1090, 1090, 1090, 1089, 1089, 1089, 1089, 1088, 1088, 1088, 1087, 1086, 1086, 1086, 1085, 1085, 1084, 1084, 1084, 1083, 1082, 1081, 1080, 1079, 1078, 1078, 1078, 1077, 1077, 1076, 1076, 1075, 1075, 1074, 1074, 1074, 1074, 1073, 1072, 1072, 1071, 1070, 1070, 1070, 1069, 1068, 1068, 1067, 1067, 1067, 1067, 1066, 1066, 1066, 1066, 1066, 1065, 1064, 1064, 1064, 1064, 1063, 1062, 1062, 1062, 1059, 1058, 1058, 1057, 1057, 1056, 1056, 1056, 1056, 1055, 1055, 1054, 1053, 1053, 1053, 1053, 1052, 1052, 1052, 1050, 1050, 1050, 1049, 1048, 1047, 1047, 1046, 1045, 1045, 1045, 1045, 1045, 1045, 1044, 1043, 1042, 1042, 1042, 1041, 1041, 1040, 1039, 1039, 1039, 1038, 1037, 1037, 1037, 1036, 1036, 1035, 1035, 1034, 1034, 1031, 1031, 1031, 1030, 1029, 1029, 1029, 1028, 1028, 1027, 1026, 1026, 1025, 1025, 1024, 1023, 1023, 1022, 1022, 1021, 1019, 1018, 1018, 1018, 1018, 1017, 1017, 1015, 1015, 1015, 1014, 1013, 1013, 1013, 1012, 1011, 1011, 1010, 1010, 1010, 1009, 1009, 1009, 1007, 1007, 1004, 1002, 1002, 1001, 1001, 1001, 1000, 999, 999, 999, 998, 998, 998, 997, 997, 996, 996, 995, 995, 994, 994, 994, 993, 992, 992, 992, 991, 990, 989, 989, 989, 988, 988, 988, 987, 987, 987, 986, 986, 985, 984, 984, 984, 983, 983, 983, 982, 981, 979, 978, 977, 977, 977, 977, 976, 975, 974, 974, 974, 973, 973, 973, 972, 972, 971, 970, 970, 969, 969, 968, 968, 968, 965, 963, 963, 963, 963, 962, 961, 961, 961, 961, 959, 959, 958, 958, 958, 957, 957, 957, 957, 956, 955, 954, 954, 953, 952, 952, 952, 950, 950, 950, 950, 948, 948, 948, 947, 946, 945, 945, 945, 945, 944, 943, 943, 943, 943, 943, 942, 941, 941, 939, 938, 937, 937, 937, 937, 935, 934, 934, 932, 931, 931, 930, 928, 928, 928, 928, 926, 925, 925, 925, 923, 923, 923, 922, 921, 921, 920, 920, 920, 919, 919, 919, 918, 918, 917, 917, 916, 915, 914, 914, 913, 912, 912, 912, 911, 911, 911, 910, 910, 909, 908, 908, 907, 907, 904, 902, 902, 901, 900, 900, 900, 899, 899, 898, 897, 895, 894, 893, 893, 892, 892, 889, 888, 887, 886, 886, 885, 884, 883, 882, 879, 877, 877, 877, 877, 877, 877, 875, 875, 875, 875, 874, 874, 874, 872, 872, 871, 870, 870, 869, 869, 868, 868, 867, 867, 867, 867, 866, 866, 864, 864, 864, 863, 861, 860, 859, 859, 858, 857, 857, 855, 855, 854, 853, 853, 851, 851, 850, 850, 849, 849, 848, 848, 847, 847, 846, 845, 843, 843, 842, 842, 841, 841, 841, 840, 840, 840, 840, 838, 837, 835, 834, 832, 832, 828, 827, 826, 826, 825, 825, 822, 822, 822, 822, 817, 816, 815, 814, 813, 811, 809, 809, 806, 805, 804, 804, 804, 803, 802, 802, 801, 801, 800, 799, 797, 795, 793, 792, 792, 792, 790, 789, 787, 785, 784, 784, 781, 780, 776, 775, 774, 773, 772, 771, 768, 767, 766, 760, 760, 758, 758, 757, 752, 751, 750, 750, 740, 735, 735, 733, 732, 729, 727, 726, 719, 719, 716, 713, 711, 707, 706, 700, 695, 694, 683, 681, 678, 673, 673, 671, 670, 667, 663, 662, 661, 657, 657, 656, 649, 640, 628, 621, 616, 608, 606, 606, 603, 600, 594, 579, 573, 568, 567, 558, 540, 522, 517, 497, 478], "y": [0.04198152812762146, 0.12594458438287548, 0.2099076406381184, 0.2938706968933724, 0.37783375314861534, 0.46179680940385825, 0.5457598656591123, 0.6297229219143552, 0.7136859781696092, 0.7976490344248521, 0.8816120906801062, 0.9655751469353491, 1.049538203190592, 1.133501259445846, 1.217464315701089, 1.301427371956343, 1.3853904282115859, 1.4693534844668399, 1.5533165407220828, 1.6372795969773257, 1.7212426532325797, 1.8052057094878227, 1.8891687657430767, 1.9731318219983196, 2.0570948782535736, 2.1410579345088165, 2.2250209907640595, 2.3089840470193135, 2.434928631402178, 2.434928631402178, 2.602854743912675, 2.602854743912675, 2.7287993282955503, 2.812762384550793, 2.9387069689336687, 2.9387069689336687, 3.064651553316544, 3.148614609571787, 3.232577665827041, 3.316540722082284, 3.4424853064651595, 3.4424853064651595, 3.568429890848024, 3.652392947103278, 3.736356003358521, 3.820319059613775, 3.9042821158690177, 3.9882451721242607, 4.114189756507136, 4.114189756507136, 4.3240973971452545, 4.3240973971452545, 4.3240973971452545, 4.492023509655752, 4.575986565910995, 4.659949622166248, 4.743912678421491, 4.827875734676745, 4.953820319059609, 4.953820319059609, 5.079764903442485, 5.205709487825361, 5.205709487825361, 5.3316540722082255, 5.4575986565911005, 5.4575986565911005, 5.583543240973976, 5.6675062972292185, 5.751469353484461, 5.877413937867337, 5.877413937867337, 6.003358522250213, 6.087321578505456, 6.17128463476071, 6.297229219143574, 6.297229219143574, 6.423173803526449, 6.507136859781692, 6.591099916036947, 6.6750629722921895, 6.759026028547444, 6.884970612930308, 6.884970612930308, 7.010915197313183, 7.094878253568426, 7.17884130982368, 7.262804366078923, 7.346767422334177, 7.43073047858942, 7.514693534844663, 7.5986565910999175, 7.6826196473551605, 7.766582703610414, 7.892527287993278, 7.892527287993278, 8.018471872376153, 8.102434928631396, 8.18639798488665, 8.270361041141893, 8.354324097397148, 8.480268681780013, 8.480268681780013, 8.648194794290509, 8.648194794290509, 8.774139378673384, 8.858102434928627, 8.984047019311504, 8.984047019311504, 9.109991603694379, 9.235936188077243, 9.235936188077243, 9.361880772460118, 9.487825356842993, 9.487825356842993, 9.613769941225858, 9.697732997481111, 9.823677581863976, 9.823677581863976, 9.949622166246852, 10.075566750629728, 10.075566750629728, 10.201511335012592, 10.327455919395467, 10.327455919395467, 10.495382031905965, 10.495382031905965, 10.62132661628883, 10.705289672544083, 10.789252728799326, 10.87321578505458, 10.957178841309823, 11.125104953820319, 11.125104953820319, 11.125104953820319, 11.293031066330816, 11.41897565071368, 11.41897565071368, 11.544920235096557, 11.62888329135181, 11.754827875734675, 11.754827875734675, 11.88077246011755, 12.006717044500414, 12.006717044500414, 12.132661628883291, 12.216624685138544, 12.300587741393787, 12.38455079764903, 12.510495382031905, 12.510495382031905, 12.720403022670023, 12.720403022670023, 12.720403022670023, 12.88832913518052, 12.972292191435763, 13.09823677581864, 13.09823677581864, 13.266162888329136, 13.266162888329136, 13.392107472712011, 13.476070528967254, 13.560033585222497, 13.643996641477752, 13.727959697732995, 13.85390428211587, 13.85390428211587, 13.979848866498745, 14.063811922753988, 14.147774979009231, 14.231738035264485, 14.315701091519728, 14.399664147774981, 14.483627204030224, 14.609571788413101, 14.609571788413101, 14.735516372795965, 14.86146095717884, 14.86146095717884, 14.987405541561715, 15.11335012594458, 15.11335012594458, 15.239294710327457, 15.3232577665827, 15.407220822837953, 15.491183879093196, 15.57514693534845, 15.659109991603692, 15.743073047858946, 15.827036104114189, 15.910999160369432, 15.994962216624685, 16.07892527287993, 16.162888329135182, 16.246851385390425, 16.3727959697733, 16.3727959697733, 16.498740554156164, 16.58270361041142, 16.708648194794296, 16.708648194794296, 16.83459277917716, 16.918555835432414, 17.0864819479429, 17.0864819479429, 17.0864819479429, 17.254408060453397, 17.422334172963893, 17.422334172963893, 17.422334172963893, 17.716204869857265, 17.716204869857265, 17.716204869857265, 17.716204869857265, 17.926112510495386, 18.01007556675063, 18.094038623005883, 18.178001679261126, 18.26196473551638, 18.345927791771622, 18.429890848026865, 18.51385390428212, 18.723761544920237, 18.723761544920237, 18.723761544920237, 18.723761544920237, 19.017632241813597, 19.017632241813597, 19.017632241813597, 19.227539882451715, 19.227539882451715, 19.437447523089844, 19.437447523089844, 19.437447523089844, 19.60537363560033, 19.689336691855587, 19.81528127623845, 19.81528127623845, 19.941225860621326, 20.02518891687658, 20.109151973131823, 20.235096557514698, 20.235096557514698, 20.486985726280437, 20.486985726280437, 20.486985726280437, 20.486985726280437, 20.738874895046177, 20.738874895046177, 20.864819479429052, 21.032745591939552, 21.032745591939552, 21.032745591939552, 21.20067170445005, 21.28463476070529, 21.452560873215788, 21.452560873215788, 21.452560873215788, 21.620486985726284, 21.78841309823678, 21.78841309823678, 21.78841309823678, 21.9983207388749, 21.9983207388749, 22.124265323257763, 22.33417296389588, 22.33417296389588, 22.33417296389588, 22.33417296389588, 22.58606213266163, 22.58606213266163, 22.712006717044495, 22.837951301427374, 22.837951301427374, 22.96389588581025, 23.089840470193113, 23.089840470193113, 23.21578505457599, 23.29974811083123, 23.383711167086485, 23.50965575146935, 23.50965575146935, 23.635600335852224, 23.80352644836272, 23.80352644836272, 23.80352644836272, 24.01343408900084, 24.01343408900084, 24.139378673383717, 24.22334172963896, 24.307304785894203, 24.43324937027708, 24.43324937027708, 24.601175482787575, 24.601175482787575, 24.72712006717045, 24.937027707808568, 24.937027707808568, 24.937027707808568, 24.937027707808568, 25.146935348446686, 25.27287993282955, 25.27287993282955, 25.398824517212425, 25.5247691015953, 25.5247691015953, 25.81863979848866, 25.81863979848866, 25.81863979848866, 25.81863979848866, 25.81863979848866, 26.070528967254404, 26.154492023509658, 26.2384550797649, 26.406381192275397, 26.406381192275397, 26.406381192275397, 26.616288832913515, 26.616288832913515, 26.74223341729639, 26.868178001679265, 26.868178001679265, 26.99412258606213, 27.078085642317383, 27.162048698572626, 27.24601175482787, 27.371956339210747, 27.371956339210747, 27.539882451721244, 27.539882451721244, 27.70780856423174, 27.70780856423174, 28.043660789252733, 28.043660789252733, 28.043660789252733, 28.043660789252733, 28.043660789252733, 28.043660789252733, 28.337531486146094, 28.421494542401348, 28.50545759865659, 28.589420654911834, 28.673383711167087, 28.75734676742233, 28.883291351805205, 28.883291351805205, 29.009235936188084, 29.093198992443327, 29.17716204869857, 29.261125104953823, 29.345088161209066, 29.513014273719563, 29.513014273719563, 29.513014273719563, 29.72292191435768, 29.72292191435768, 29.9328295549958, 29.9328295549958, 29.9328295549958, 30.100755667506295, 30.18471872376155, 30.26868178001679, 30.352644836272034, 30.478589420654913, 30.478589420654913, 30.604534005037788, 30.772460117548285, 30.772460117548285, 30.772460117548285, 30.94038623005877, 31.066330814441645, 31.066330814441645, 31.19227539882452, 31.360201511335017, 31.360201511335017, 31.360201511335017, 31.570109151973135, 31.570109151973135, 31.780016792611253, 31.780016792611253, 31.780016792611253, 32.03190596137699, 32.03190596137699, 32.03190596137699, 32.241813602015114, 32.241813602015114, 32.367758186397985, 32.45172124265323, 32.535684298908485, 32.61964735516373, 32.70361041141897, 32.78757346767422, 32.95549958018472, 32.95549958018472, 32.95549958018472, 33.207388748950464, 33.207388748950464, 33.207388748950464, 33.41729638958858, 33.41729638958858, 33.58522250209908, 33.58522250209908, 33.75314861460957, 33.75314861460957, 33.879093198992436, 33.96305625524769, 34.130982367758186, 34.130982367758186, 34.130982367758186, 34.34089000839631, 34.34089000839631, 34.55079764903443, 34.55079764903443, 34.55079764903443, 34.76070528967254, 34.76070528967254, 34.970612930310665, 34.970612930310665, 34.970612930310665, 35.18052057094878, 35.18052057094878, 35.34844668345928, 35.34844668345928, 35.47439126784215, 35.558354324097394, 35.64231738035264, 35.85222502099077, 35.85222502099077, 35.85222502099077, 35.85222502099077, 36.06213266162889, 36.14609571788413, 36.27204030226701, 36.27204030226701, 36.4399664147775, 36.4399664147775, 36.565910999160366, 36.691855583543244, 36.691855583543244, 36.90176322418136, 36.90176322418136, 36.90176322418136, 37.11167086481948, 37.11167086481948, 37.23761544920235, 37.321578505457595, 37.57346767422334, 37.57346767422334, 37.57346767422334, 37.57346767422334, 37.57346767422334, 37.90931989924433, 37.90931989924433, 37.90931989924433, 38.2031905961377, 38.2031905961377, 38.2031905961377, 38.2031905961377, 38.455079764903445, 38.455079764903445, 38.62300587741394, 38.62300587741394, 38.79093198992444, 38.79093198992444, 38.958858102434924, 38.958858102434924, 39.16876574307305, 39.16876574307305, 39.16876574307305, 39.33669185558354, 39.46263643996642, 39.46263643996642, 39.67254408060453, 39.67254408060453, 39.67254408060453, 39.924433249370274, 39.924433249370274, 39.924433249370274, 40.13434089000839, 40.13434089000839, 40.26028547439127, 40.34424853064652, 40.47019311502938, 40.47019311502938, 40.63811922753988, 40.63811922753988, 40.80604534005038, 40.80604534005038, 40.93198992443325, 41.015952980688496, 41.09991603694374, 41.30982367758187, 41.30982367758187, 41.30982367758187, 41.30982367758187, 41.56171284634761, 41.56171284634761, 41.771620486985725, 41.771620486985725, 41.771620486985725, 42.06549118387909, 42.06549118387909, 42.06549118387909, 42.06549118387909, 42.31738035264484, 42.31738035264484, 42.48530646515534, 42.48530646515534, 42.653232577665825, 42.653232577665825, 42.7791771620487, 42.9471032745592, 42.9471032745592, 42.9471032745592, 43.11502938706969, 43.28295549958019, 43.28295549958019, 43.28295549958019, 43.534844668345926, 43.534844668345926, 43.534844668345926, 43.74475230898405, 43.74475230898405, 43.91267842149455, 43.91267842149455, 44.03862300587741, 44.16456759026028, 44.16456759026028, 44.458438287153655, 44.458438287153655, 44.458438287153655, 44.458438287153655, 44.458438287153655, 44.7103274559194, 44.79429051217464, 45.004198152812755, 45.004198152812755, 45.004198152812755, 45.004198152812755, 45.29806884970613, 45.29806884970613, 45.29806884970613, 45.50797649034425, 45.50797649034425, 45.67590260285475, 45.67590260285475, 45.84382871536524, 45.84382871536524, 45.969773299748105, 46.095717884130984, 46.095717884130984, 46.221662468513856, 46.3056255247691, 46.389588581024356, 46.51553316540722, 46.51553316540722, 46.725440806045334, 46.725440806045334, 46.725440806045334, 47.103274559193956, 47.103274559193956, 47.103274559193956, 47.103274559193956, 47.103274559193956, 47.103274559193956, 47.39714525608733, 47.52308984047019, 47.52308984047019, 47.64903442485306, 47.858942065491185, 47.858942065491185, 47.858942065491185, 47.858942065491185, 48.11083123425692, 48.11083123425692, 48.36272040302268, 48.36272040302268, 48.36272040302268, 48.36272040302268, 48.57262804366079, 48.69857262804366, 48.69857262804366, 48.824517212426535, 48.95046179680941, 48.95046179680941, 49.07640638119227, 49.28631402183039, 49.28631402183039, 49.28631402183039, 49.28631402183039, 49.49622166246851, 49.580184718723764, 49.66414777497901, 49.79009235936188, 49.79009235936188, 49.91603694374476, 50.08396305625524, 50.08396305625524, 50.08396305625524, 50.377833753148614, 50.377833753148614, 50.377833753148614, 50.377833753148614, 50.587741393786736, 50.71368597816961, 50.71368597816961, 50.88161209068009, 50.88161209068009, 51.00755667506297, 51.13350125944584, 51.13350125944584, 51.25944584382871, 51.427371956339215, 51.427371956339215, 51.427371956339215, 51.5952980688497, 51.679261125104944, 51.7632241813602, 51.88916876574308, 51.88916876574308, 52.09907640638119, 52.09907640638119, 52.09907640638119, 52.308984047019315, 52.308984047019315, 52.43492863140218, 52.64483627204031, 52.64483627204031, 52.64483627204031, 52.64483627204031, 52.896725440806044, 52.896725440806044, 53.02267002518892, 53.19059613769941, 53.19059613769941, 53.19059613769941, 53.35852225020991, 53.5264483627204, 53.5264483627204, 53.5264483627204, 53.82031905961377, 53.82031905961377, 53.82031905961377, 53.82031905961377, 54.11418975650714, 54.11418975650714, 54.11418975650714, 54.28211586901763, 54.45004198152813, 54.45004198152813, 54.45004198152813, 54.65994962216625, 54.65994962216625, 54.869857262804366, 54.869857262804366, 54.869857262804366, 55.037783375314866, 55.12174643157011, 55.20570948782535, 55.2896725440806, 55.37363560033586, 55.541561712846345, 55.541561712846345, 55.541561712846345, 55.751469353484474, 55.751469353484474, 55.91939546599496, 55.91939546599496, 56.08732157850545, 56.08732157850545, 56.339210747271196, 56.339210747271196, 56.339210747271196, 56.339210747271196, 56.549118387909324, 56.67506297229219, 56.67506297229219, 56.80100755667507, 56.96893366918556, 56.96893366918556, 56.96893366918556, 57.136859781696046, 57.262804366078925, 57.262804366078925, 57.51469353484466, 57.51469353484466, 57.51469353484466, 57.51469353484466, 57.892527287993275, 57.892527287993275, 57.892527287993275, 57.892527287993275, 57.892527287993275, 58.14441645675903, 58.354324097397146, 58.354324097397146, 58.354324097397146, 58.354324097397146, 58.56423173803527, 58.732157850545754, 58.732157850545754, 58.732157850545754, 58.90008396305626, 59.026028547439125, 59.026028547439125, 59.19395465994962, 59.19395465994962, 59.44584382871536, 59.44584382871536, 59.44584382871536, 59.44584382871536, 59.69773299748111, 59.69773299748111, 59.823677581863976, 60.033585222502104, 60.033585222502104, 60.033585222502104, 60.033585222502104, 60.32745591939547, 60.32745591939547, 60.32745591939547, 60.579345088161205, 60.579345088161205, 60.579345088161205, 60.747271200671705, 60.83123425692696, 60.957178841309826, 60.957178841309826, 61.08312342569269, 61.37699412258606, 61.37699412258606, 61.37699412258606, 61.37699412258606, 61.37699412258606, 61.37699412258606, 61.67086481947943, 61.75482787573468, 61.92275398824517, 61.92275398824517, 61.92275398824517, 62.13266162888329, 62.13266162888329, 62.25860621326616, 62.42653232577666, 62.42653232577666, 62.42653232577666, 62.59445843828715, 62.762384550797655, 62.762384550797655, 62.762384550797655, 62.97229219143576, 62.97229219143576, 63.14021830394627, 63.14021830394627, 63.308144416456756, 63.308144416456756, 63.51805205709488, 63.51805205709488, 63.51805205709488, 63.68597816960537, 63.85390428211587, 63.85390428211587, 63.85390428211587, 64.06381192275398, 64.06381192275398, 64.18975650713685, 64.31570109151974, 64.31570109151974, 64.48362720403023, 64.48362720403023, 64.6095717884131, 64.73551637279597, 64.73551637279597, 64.90344248530646, 64.90344248530646, 65.02938706968934, 65.11335012594459, 65.3232577665827, 65.3232577665827, 65.3232577665827, 65.3232577665827, 65.57514693534844, 65.57514693534844, 65.78505457598656, 65.78505457598656, 65.78505457598656, 65.95298068849706, 66.12090680100755, 66.12090680100755, 66.12090680100755, 66.28883291351806, 66.41477749790093, 66.41477749790093, 66.62468513853904, 66.62468513853904, 66.62468513853904, 66.87657430730478, 66.87657430730478, 66.87657430730478, 67.08648194794291, 67.08648194794291, 67.21242653232578, 67.33837111670866, 67.33837111670866, 67.54827875734676, 67.54827875734676, 67.54827875734676, 67.71620486985725, 67.88413098236776, 67.88413098236776, 67.88413098236776, 68.13602015113351, 68.13602015113351, 68.13602015113351, 68.34592779177162, 68.34592779177162, 68.51385390428212, 68.51385390428212, 68.68178001679262, 68.68178001679262, 68.89168765743072, 68.89168765743072, 68.89168765743072, 69.05961376994124, 69.22753988245172, 69.22753988245172, 69.22753988245172, 69.39546599496222, 69.47942905121747, 69.64735516372795, 69.64735516372795, 69.64735516372795, 69.89924433249371, 69.89924433249371, 69.89924433249371, 70.15113350125944, 70.15113350125944, 70.15113350125944, 70.36104114189756, 70.36104114189756, 70.48698572628044, 70.65491183879094, 70.65491183879094, 70.65491183879094, 70.90680100755668, 70.90680100755668, 70.90680100755668, 71.07472712006717, 71.15869017632241, 71.24265323257767, 71.32661628883291, 71.53652392947103, 71.53652392947103, 71.53652392947103, 71.53652392947103, 71.74643157010917, 71.83039462636441, 71.9983207388749, 71.9983207388749, 71.9983207388749, 72.25020990764064, 72.25020990764064, 72.25020990764064, 72.46011754827876, 72.46011754827876, 72.58606213266164, 72.7120067170445, 72.7120067170445, 72.87993282955499, 72.87993282955499, 73.08984047019311, 73.08984047019311, 73.08984047019311, 73.25776658270361, 73.46767422334173, 73.46767422334173, 73.46767422334173, 73.46767422334173, 73.67758186397985, 73.88748950461796, 73.88748950461796, 73.88748950461796, 73.88748950461796, 74.13937867338372, 74.13937867338372, 74.34928631402182, 74.34928631402182, 74.34928631402182, 74.64315701091519, 74.64315701091519, 74.64315701091519, 74.64315701091519, 74.85306465155331, 74.93702770780857, 75.06297229219143, 75.06297229219143, 75.18891687657431, 75.35684298908481, 75.35684298908481, 75.35684298908481, 75.65071368597816, 75.65071368597816, 75.65071368597816, 75.65071368597816, 75.94458438287154, 75.94458438287154, 75.94458438287154, 76.11251049538204, 76.19647355163728, 76.40638119227539, 76.40638119227539, 76.40638119227539, 76.40638119227539, 76.61628883291351, 76.86817800167927, 76.86817800167927, 76.86817800167927, 76.86817800167927, 76.86817800167927, 77.12006717044501, 77.24601175482788, 77.24601175482788, 77.37195633921074, 77.45591939546598, 77.66582703610412, 77.66582703610412, 77.66582703610412, 77.66582703610412, 77.87573467674224, 78.0016792611251, 78.0016792611251, 78.12762384550797, 78.25356842989085, 78.25356842989085, 78.37951301427371, 78.58942065491183, 78.58942065491183, 78.58942065491183, 78.58942065491183, 78.79932829554997, 78.96725440806046, 78.96725440806046, 78.96725440806046, 79.2191435768262, 79.2191435768262, 79.2191435768262, 79.38706968933668, 79.51301427371956, 79.51301427371956, 79.72292191435768, 79.72292191435768, 79.72292191435768, 79.97481108312343, 79.97481108312343, 79.97481108312343, 80.18471872376153, 80.18471872376153, 80.35264483627205, 80.35264483627205, 80.47858942065491, 80.56255247691016, 80.68849706129303, 80.68849706129303, 80.8144416456759, 80.9823677581864, 80.9823677581864, 80.9823677581864, 81.23425692695214, 81.23425692695214, 81.23425692695214, 81.44416456759026, 81.44416456759026, 81.57010915197314, 81.696053736356, 81.696053736356, 81.86397984886649, 81.86397984886649, 81.98992443324937, 82.11586901763224, 82.11586901763224, 82.24181360201511, 82.40973971452561, 82.40973971452561, 82.40973971452561, 82.61964735516372, 82.61964735516372, 82.7455919395466, 82.82955499580184, 82.91351805205709, 82.99748110831234, 83.12342569269522, 83.12342569269522, 83.29135180520571, 83.29135180520571, 83.41729638958859, 83.50125944584383, 83.58522250209907, 83.71116708648194, 83.71116708648194, 83.83711167086481, 83.92107472712007, 84.00503778337531, 84.08900083963056, 84.17296389588581, 84.46683459277918, 84.46683459277918, 84.46683459277918, 84.46683459277918, 84.46683459277918, 84.46683459277918, 84.88664987405541, 84.88664987405541, 84.88664987405541, 84.88664987405541, 85.18052057094879, 85.18052057094879, 85.18052057094879, 85.3904282115869, 85.3904282115869, 85.51637279596977, 85.64231738035264, 85.64231738035264, 85.81024349286314, 85.81024349286314, 85.97816960537364, 85.97816960537364, 86.23005877413938, 86.23005877413938, 86.23005877413938, 86.23005877413938, 86.48194794290512, 86.48194794290512, 86.69185558354324, 86.69185558354324, 86.69185558354324, 86.85978169605374, 86.94374475230899, 87.02770780856423, 87.1536523929471, 87.1536523929471, 87.27959697732997, 87.40554156171285, 87.40554156171285, 87.57346767422334, 87.57346767422334, 87.69941225860622, 87.8253568429891, 87.8253568429891, 87.99328295549958, 87.99328295549958, 88.16120906801007, 88.16120906801007, 88.32913518052057, 88.32913518052057, 88.49706129303107, 88.49706129303107, 88.66498740554157, 88.66498740554157, 88.79093198992443, 88.87489504617967, 89.00083963056255, 89.00083963056255, 89.16876574307304, 89.16876574307304, 89.37867338371117, 89.37867338371117, 89.37867338371117, 89.67254408060454, 89.67254408060454, 89.67254408060454, 89.67254408060454, 89.88245172124265, 89.9664147774979, 90.05037783375315, 90.1343408900084, 90.26028547439127, 90.26028547439127, 90.38623005877415, 90.47019311502939, 90.59613769941225, 90.59613769941225, 90.76406381192275, 90.76406381192275, 91.0159529806885, 91.0159529806885, 91.0159529806885, 91.0159529806885, 91.22586062132662, 91.30982367758187, 91.39378673383712, 91.47774979009236, 91.5617128463476, 91.64567590260285, 91.77162048698573, 91.77162048698573, 91.89756507136859, 91.98152812762385, 92.14945424013435, 92.14945424013435, 92.14945424013435, 92.31738035264485, 92.44332493702771, 92.44332493702771, 92.6112510495382, 92.6112510495382, 92.73719563392108, 92.82115869017632, 92.90512174643158, 92.98908480268682, 93.07304785894206, 93.24097397145256, 93.24097397145256, 93.24097397145256, 93.40890008396305, 93.4928631402183, 93.57682619647355, 93.6607892527288, 93.78673383711167, 93.78673383711167, 93.91267842149455, 93.99664147774979, 94.08060453400505, 94.16456759026029, 94.24853064651553, 94.33249370277078, 94.41645675902602, 94.50041981528128, 94.58438287153652, 94.66834592779178, 94.75230898404702, 94.8782535684299, 94.8782535684299, 95.04617968094038, 95.04617968094038, 95.17212426532325, 95.2560873215785, 95.34005037783375, 95.46599496221663, 95.46599496221663, 95.59193954659949, 95.71788413098237, 95.71788413098237, 95.84382871536525, 95.92779177162049, 96.01175482787573, 96.09571788413098, 96.17968094038622, 96.3056255247691, 96.3056255247691, 96.43157010915198, 96.51553316540722, 96.59949622166248, 96.68345927791772, 96.76742233417296, 96.85138539042822, 96.93534844668346, 97.0193115029387, 97.10327455919395, 97.1872376154492, 97.27120067170445, 97.39714525608733, 97.39714525608733, 97.52308984047019, 97.60705289672545, 97.69101595298069, 97.77497900923593, 97.85894206549118, 97.94290512174642, 98.0688497061293, 98.0688497061293, 98.19479429051218, 98.27875734676742, 98.36272040302268, 98.44668345927792, 98.53064651553316, 98.61460957178842, 98.69857262804366, 98.82451721242653, 98.82451721242653, 98.9504617968094, 99.03442485306465, 99.11838790931989, 99.20235096557515, 99.28631402183039, 99.37027707808565, 99.45424013434089, 99.53820319059614, 99.62216624685138, 99.70612930310662, 99.79009235936188, 99.87405541561712, 99.95801847187238]}],
                        {"barmode": "overlay", "hovermode": "x unified", "showlegend": false, "template": {"data": {"bar": [{"error_x": {"color": "#2a3f5f"}, "error_y": {"color": "#2a3f5f"}, "marker": {"line": {"color": "#E5ECF6", "width": 0.5}}, "type": "bar"}], "barpolar": [{"marker": {"line": {"color": "#E5ECF6", "width": 0.5}}, "type": "barpolar"}], "carpet": [{"aaxis": {"endlinecolor": "#2a3f5f", "gridcolor": "white", "linecolor": "white", "minorgridcolor": "white", "startlinecolor": "#2a3f5f"}, "baxis": {"endlinecolor": "#2a3f5f", "gridcolor": "white", "linecolor": "white", "minorgridcolor": "white", "startlinecolor": "#2a3f5f"}, "type": "carpet"}], "choropleth": [{"colorbar": {"outlinewidth": 0, "ticks": ""}, "type": "choropleth"}], "contour": [{"colorbar": {"outlinewidth": 0, "ticks": ""}, "colorscale": [[0.0, "#0d0887"], [0.1111111111111111, "#46039f"], [0.2222222222222222, "#7201a8"], [0.3333333333333333, "#9c179e"], [0.4444444444444444, "#bd3786"], [0.5555555555555556, "#d8576b"], [0.6666666666666666, "#ed7953"], [0.7777777777777778, "#fb9f3a"], [0.8888888888888888, "#fdca26"], [1.0, "#f0f921"]], "type": "contour"}], "contourcarpet": [{"colorbar": {"outlinewidth": 0, "ticks": ""}, "type": "contourcarpet"}], "heatmap": [{"colorbar": {"outlinewidth": 0, "ticks": ""}, "colorscale": [[0.0, "#0d0887"], [0.1111111111111111, "#46039f"], [0.2222222222222222, "#7201a8"], [0.3333333333333333, "#9c179e"], [0.4444444444444444, "#bd3786"], [0.5555555555555556, "#d8576b"], [0.6666666666666666, "#ed7953"], [0.7777777777777778, "#fb9f3a"], [0.8888888888888888, "#fdca26"], [1.0, "#f0f921"]], "type": "heatmap"}], "heatmapgl": [{"colorbar": {"outlinewidth": 0, "ticks": ""}, "colorscale": [[0.0, "#0d0887"], [0.1111111111111111, "#46039f"], [0.2222222222222222, "#7201a8"], [0.3333333333333333, "#9c179e"], [0.4444444444444444, "#bd3786"], [0.5555555555555556, "#d8576b"], [0.6666666666666666, "#ed7953"], [0.7777777777777778, "#fb9f3a"], [0.8888888888888888, "#fdca26"], [1.0, "#f0f921"]], "type": "heatmapgl"}], "histogram": [{"marker": {"colorbar": {"outlinewidth": 0, "ticks": ""}}, "type": "histogram"}], "histogram2d": [{"colorbar": {"outlinewidth": 0, "ticks": ""}, "colorscale": [[0.0, "#0d0887"], [0.1111111111111111, "#46039f"], [0.2222222222222222, "#7201a8"], [0.3333333333333333, "#9c179e"], [0.4444444444444444, "#bd3786"], [0.5555555555555556, "#d8576b"], [0.6666666666666666, "#ed7953"], [0.7777777777777778, "#fb9f3a"], [0.8888888888888888, "#fdca26"], [1.0, "#f0f921"]], "type": "histogram2d"}], "histogram2dcontour": [{"colorbar": {"outlinewidth": 0, "ticks": ""}, "colorscale": [[0.0, "#0d0887"], [0.1111111111111111, "#46039f"], [0.2222222222222222, "#7201a8"], [0.3333333333333333, "#9c179e"], [0.4444444444444444, "#bd3786"], [0.5555555555555556, "#d8576b"], [0.6666666666666666, "#ed7953"], [0.7777777777777778, "#fb9f3a"], [0.8888888888888888, "#fdca26"], [1.0, "#f0f921"]], "type": "histogram2dcontour"}], "mesh3d": [{"colorbar": {"outlinewidth": 0, "ticks": ""}, "type": "mesh3d"}], "parcoords": [{"line": {"colorbar": {"outlinewidth": 0, "ticks": ""}}, "type": "parcoords"}], "pie": [{"automargin": true, "type": "pie"}], "scatter": [{"marker": {"colorbar": {"outlinewidth": 0, "ticks": ""}}, "type": "scatter"}], "scatter3d": [{"line": {"colorbar": {"outlinewidth": 0, "ticks": ""}}, "marker": {"colorbar": {"outlinewidth": 0, "ticks": ""}}, "type": "scatter3d"}], "scattercarpet": [{"marker": {"colorbar": {"outlinewidth": 0, "ticks": ""}}, "type": "scattercarpet"}], "scattergeo": [{"marker": {"colorbar": {"outlinewidth": 0, "ticks": ""}}, "type": "scattergeo"}], "scattergl": [{"marker": {"colorbar": {"outlinewidth": 0, "ticks": ""}}, "type": "scattergl"}], "scattermapbox": [{"marker": {"colorbar": {"outlinewidth": 0, "ticks": ""}}, "type": "scattermapbox"}], "scatterpolar": [{"marker": {"colorbar": {"outlinewidth": 0, "ticks": ""}}, "type": "scatterpolar"}], "scatterpolargl": [{"marker": {"colorbar": {"outlinewidth": 0, "ticks": ""}}, "type": "scatterpolargl"}], "scatterternary": [{"marker": {"colorbar": {"outlinewidth": 0, "ticks": ""}}, "type": "scatterternary"}], "surface": [{"colorbar": {"outlinewidth": 0, "ticks": ""}, "colorscale": [[0.0, "#0d0887"], [0.1111111111111111, "#46039f"], [0.2222222222222222, "#7201a8"], [0.3333333333333333, "#9c179e"], [0.4444444444444444, "#bd3786"], [0.5555555555555556, "#d8576b"], [0.6666666666666666, "#ed7953"], [0.7777777777777778, "#fb9f3a"], [0.8888888888888888, "#fdca26"], [1.0, "#f0f921"]], "type": "surface"}], "table": [{"cells": {"fill": {"color": "#EBF0F8"}, "line": {"color": "white"}}, "header": {"fill": {"color": "#C8D4E3"}, "line": {"color": "white"}}, "type": "table"}]}, "layout": {"annotationdefaults": {"arrowcolor": "#2a3f5f", "arrowhead": 0, "arrowwidth": 1}, "coloraxis": {"colorbar": {"outlinewidth": 0, "ticks": ""}}, "colorscale": {"diverging": [[0, "#8e0152"], [0.1, "#c51b7d"], [0.2, "#de77ae"], [0.3, "#f1b6da"], [0.4, "#fde0ef"], [0.5, "#f7f7f7"], [0.6, "#e6f5d0"], [0.7, "#b8e186"], [0.8, "#7fbc41"], [0.9, "#4d9221"], [1, "#276419"]], "sequential": [[0.0, "#0d0887"], [0.1111111111111111, "#46039f"], [0.2222222222222222, "#7201a8"], [0.3333333333333333, "#9c179e"], [0.4444444444444444, "#bd3786"], [0.5555555555555556, "#d8576b"], [0.6666666666666666, "#ed7953"], [0.7777777777777778, "#fb9f3a"], [0.8888888888888888, "#fdca26"], [1.0, "#f0f921"]], "sequentialminus": [[0.0, "#0d0887"], [0.1111111111111111, "#46039f"], [0.2222222222222222, "#7201a8"], [0.3333333333333333, "#9c179e"], [0.4444444444444444, "#bd3786"], [0.5555555555555556, "#d8576b"], [0.6666666666666666, "#ed7953"], [0.7777777777777778, "#fb9f3a"], [0.8888888888888888, "#fdca26"], [1.0, "#f0f921"]]}, "colorway": ["#636efa", "#EF553B", "#00cc96", "#ab63fa", "#FFA15A", "#19d3f3", "#FF6692", "#B6E880", "#FF97FF", "#FECB52"], "font": {"color": "#2a3f5f"}, "geo": {"bgcolor": "white", "lakecolor": "white", "landcolor": "#E5ECF6", "showlakes": true, "showland": true, "subunitcolor": "white"}, "hoverlabel": {"align": "left"}, "hovermode": "closest", "mapbox": {"style": "light"}, "paper_bgcolor": "white", "plot_bgcolor": "#E5ECF6", "polar": {"angularaxis": {"gridcolor": "white", "linecolor": "white", "ticks": ""}, "bgcolor": "#E5ECF6", "radialaxis": {"gridcolor": "white", "linecolor": "white", "ticks": ""}}, "scene": {"xaxis": {"backgroundcolor": "#E5ECF6", "gridcolor": "white", "gridwidth": 2, "linecolor": "white", "showbackground": true, "ticks": "", "zerolinecolor": "white"}, "yaxis": {"backgroundcolor": "#E5ECF6", "gridcolor": "white", "gridwidth": 2, "linecolor": "white", "showbackground": true, "ticks": "", "zerolinecolor": "white"}, "zaxis": {"backgroundcolor": "#E5ECF6", "gridcolor": "white", "gridwidth": 2, "linecolor": "white", "showbackground": true, "ticks": "", "zerolinecolor": "white"}}, "shapedefaults": {"line": {"color": "#2a3f5f"}}, "ternary": {"aaxis": {"gridcolor": "white", "linecolor": "white", "ticks": ""}, "baxis": {"gridcolor": "white", "linecolor": "white", "ticks": ""}, "bgcolor": "#E5ECF6", "caxis": {"gridcolor": "white", "linecolor": "white", "ticks": ""}}, "title": {"x": 0.05}, "xaxis": {"automargin": true, "gridcolor": "white", "linecolor": "white", "ticks": "", "title": {"standoff": 15}, "zerolinecolor": "white", "zerolinewidth": 2}, "yaxis": {"automargin": true, "gridcolor": "white", "linecolor": "white", "ticks": "", "title": {"standoff": 15}, "zerolinecolor": "white", "zerolinewidth": 2}}}},
                        {"responsive": true}
                    )
                };
                
            </script>
        </div>
</body>
</html>