<html>
<head><meta charset="utf-8" /></head>
<body>
    <div>
        
                <script type="text/javascript">window.PlotlyConfig = {MathJaxConfig: 'local'};</script>
        <script src="https://cdn.plot.ly/plotly-latest.min.js"></script>    
            <div id="dd4824f0-212a-4543-a20d-60007191000d" class="plotly-graph-div" style="height:100%; width:100%;"></div>
            <script type="text/javascript">
                
                    window.PLOTLYENV=window.PLOTLYENV || {};
                    
                if (document.getElementById("dd4824f0-212a-4543-a20d-60007191000d")) {
                    Plotly.newPlot(
                        'dd4824f0-212a-4543-a20d-60007191000d',
                        [{"hoverinfo": "none", "type": "histogram", "x": [2181, 2158, 2142, 2108, 2091, 2047, 2016, 2013, 2011, 1983, 1975, 1961, 1956, 1951, 1949, 1945, 1944, 1937, 1910, 1910, 1896, 1885, 1877, 1860, 1854, 1850, 1849, 1842, 1836, 1823, 1819, 1809, 1808, 1798, 1772, 1765, 1759, 1754, 1754, 1749, 1747, 1746, 1746, 1737, 1732, 1732, 1732, 1721, 1720, 1720, 1716, 1709, 1704, 1702, 1693, 1692, 1689, 1689, 1684, 1679, 1679, 1678, 1672, 1670, 1666, 1664, 1663, 1659, 1658, 1656, 1649, 1643, 1639, 1632, 1625, 1624, 1608, 1605, 1605, 1605, 1603, 1597, 1592, 1591, 1589, 1585, 1584, 1583, 1583, 1582, 1580, 1579, 1579, 1577, 1574, 1567, 1564, 1564, 1562, 1559, 1558, 1557, 1554, 1553, 1553, 1552, 1550, 1550, 1549, 1544, 1542, 1535, 1533, 1532, 1531, 1529, 1528, 1526, 1526, 1525, 1525, 1523, 1521, 1521, 1520, 1520, 1518, 1517, 1512, 1509, 1509, 1506, 1502, 1502, 1499, 1498, 1498, 1496, 1495, 1492, 1492, 1489, 1488, 1487, 1486, 1482, 1481, 1481, 1480, 1477, 1476, 1474, 1474, 1474, 1473, 1469, 1463, 1462, 1460, 1458, 1456, 1456, 1455, 1453, 1450, 1447, 1446, 1445, 1443, 1442, 1441, 1440, 1439, 1433, 1431, 1427, 1426, 1424, 1424, 1423, 1421, 1420, 1420, 1416, 1416, 1416, 1412, 1409, 1409, 1408, 1408, 1408, 1408, 1407, 1402, 1399, 1399, 1398, 1398, 1394, 1394, 1394, 1392, 1392, 1391, 1388, 1388, 1386, 1386, 1384, 1384, 1383, 1381, 1381, 1381, 1380, 1379, 1379, 1378, 1377, 1377, 1377, 1376, 1375, 1372, 1372, 1371, 1370, 1370, 1370, 1369, 1369, 1369, 1368, 1368, 1367, 1367, 1366, 1366, 1366, 1366, 1364, 1364, 1363, 1363, 1361, 1360, 1359, 1359, 1358, 1356, 1356, 1356, 1355, 1355, 1354, 1353, 1353, 1350, 1350, 1349, 1348, 1347, 1347, 1346, 1346, 1344, 1344, 1340, 1339, 1339, 1338, 1337, 1337, 1335, 1333, 1332, 1331, 1330, 1329, 1325, 1324, 1324, 1323, 1323, 1321, 1321, 1321, 1321, 1321, 1320, 1319, 1318, 1316, 1316, 1315, 1315, 1314, 1314, 1314, 1313, 1313, 1313, 1313, 1311, 1310, 1310, 1310, 1308, 1306, 1306, 1305, 1304, 1302, 1301, 1301, 1301, 1300, 1299, 1296, 1295, 1294, 1294, 1290, 1290, 1288, 1288, 1288, 1286, 1284, 1283, 1282, 1282, 1280, 1280, 1279, 1279, 1275, 1275, 1275, 1272, 1272, 1271, 1271, 1270, 1270, 1270, 1269, 1269, 1269, 1267, 1266, 1266, 1264, 1261, 1258, 1258, 1257, 1257, 1257, 1255, 1254, 1254, 1254, 1254, 1253, 1252, 1252, 1252, 1249, 1249, 1248, 1248, 1247, 1247, 1246, 1246, 1245, 1244, 1243, 1242, 1242, 1241, 1240, 1240, 1239, 1239, 1239, 1238, 1238, 1238, 1237, 1237, 1237, 1237, 1236, 1236, 1236, 1235, 1235, 1235, 1235, 1234, 1234, 1233, 1233, 1232, 1232, 1231, 1230, 1229, 1229, 1229, 1229, 1229, 1228, 1228, 1227, 1223, 1222, 1222, 1222, 1221, 1219, 1218, 1218, 1218, 1217, 1217, 1217, 1216, 1215, 1215, 1215, 1215, 1214, 1214, 1214, 1212, 1212, 1211, 1210, 1210, 1208, 1208, 1207, 1207, 1207, 1206, 1205, 1205, 1204, 1203, 1202, 1201, 1200, 1199, 1199, 1198, 1198, 1198, 1198, 1197, 1197, 1197, 1197, 1195, 1194, 1193, 1193, 1192, 1190, 1190, 1190, 1189, 1188, 1186, 1185, 1185, 1185, 1183, 1183, 1183, 1182, 1181, 1181, 1181, 1180, 1180, 1180, 1180, 1179, 1179, 1178, 1178, 1178, 1177, 1177, 1176, 1176, 1176, 1175, 1175, 1175, 1173, 1173, 1172, 1171, 1171, 1171, 1170, 1169, 1169, 1167, 1166, 1166, 1166, 1164, 1164, 1164, 1163, 1162, 1161, 1160, 1159, 1159, 1158, 1158, 1157, 1156, 1155, 1155, 1154, 1153, 1152, 1152, 1152, 1150, 1150, 1149, 1149, 1147, 1145, 1145, 1144, 1144, 1144, 1143, 1143, 1141, 1141, 1141, 1141, 1139, 1138, 1138, 1137, 1136, 1136, 1136, 1136, 1136, 1136, 1135, 1134, 1134, 1134, 1134, 1132, 1131, 1131, 1130, 1130, 1128, 1125, 1124, 1124, 1123, 1123, 1123, 1122, 1121, 1120, 1120, 1119, 1118, 1118, 1117, 1117, 1117, 1117, 1116, 1116, 1116, 1116, 1115, 1114, 1113, 1113, 1111, 1110, 1110, 1109, 1109, 1109, 1107, 1105, 1105, 1105, 1104, 1104, 1103, 1102, 1102, 1101, 1101, 1100, 1100, 1100, 1100, 1099, 1098, 1097, 1095, 1094, 1094, 1093, 1093, 1092, 1092, 1092, 1091, 1090, 1090, 1090, 1090, 1089, 1089, 1088, 1088, 1088, 1088, 1088, 1087, 1087, 1087, 1086, 1086, 1085, 1085, 1084, 1082, 1081, 1081, 1080, 1079, 1078, 1078, 1078, 1077, 1077, 1077, 1076, 1076, 1075, 1074, 1074, 1074, 1072, 1072, 1072, 1070, 1070, 1070, 1069, 1069, 1068, 1067, 1067, 1067, 1066, 1066, 1065, 1064, 1064, 1064, 1064, 1062, 1062, 1061, 1061, 1059, 1058, 1058, 1057, 1057, 1057, 1057, 1057, 1056, 1055, 1055, 1054, 1054, 1053, 1053, 1053, 1053, 1053, 1052, 1051, 1050, 1050, 1049, 1048, 1047, 1047, 1047, 1047, 1046, 1045, 1045, 1045, 1045, 1045, 1044, 1044, 1044, 1044, 1042, 1042, 1042, 1041, 1041, 1040, 1039, 1039, 1039, 1039, 1038, 1038, 1037, 1037, 1036, 1036, 1035, 1034, 1034, 1033, 1033, 1032, 1032, 1032, 1031, 1031, 1031, 1030, 1029, 1029, 1028, 1028, 1028, 1027, 1027, 1026, 1026, 1025, 1025, 1025, 1025, 1024, 1023, 1023, 1022, 1022, 1019, 1019, 1018, 1017, 1015, 1015, 1014, 1014, 1013, 1013, 1013, 1013, 1011, 1011, 1010, 1009, 1009, 1008, 1007, 1007, 1005, 1005, 1005, 1004, 1004, 1004, 1003, 1002, 1002, 1000, 999, 999, 999, 999, 998, 998, 997, 997, 996, 996, 996, 994, 994, 993, 992, 991, 990, 990, 990, 989, 989, 989, 989, 988, 987, 986, 986, 986, 986, 985, 984, 984, 984, 984, 984, 983, 982, 981, 981, 980, 980, 979, 978, 978, 978, 977, 976, 975, 974, 974, 974, 974, 974, 973, 973, 973, 973, 972, 971, 970, 970, 969, 969, 967, 966, 965, 964, 963, 963, 963, 963, 962, 961, 961, 961, 961, 960, 959, 959, 958, 958, 957, 957, 957, 957, 957, 956, 956, 956, 955, 954, 952, 952, 951, 950, 950, 948, 948, 947, 947, 946, 945, 945, 945, 945, 945, 944, 943, 943, 941, 940, 939, 939, 939, 939, 938, 937, 936, 935, 934, 934, 931, 931, 930, 928, 928, 928, 928, 927, 926, 926, 925, 925, 923, 923, 921, 920, 920, 920, 919, 918, 917, 917, 916, 915, 915, 914, 914, 914, 914, 913, 913, 913, 912, 911, 911, 911, 910, 909, 909, 908, 908, 908, 907, 907, 906, 905, 902, 901, 900, 900, 900, 899, 899, 899, 899, 898, 898, 897, 897, 897, 894, 893, 892, 891, 891, 890, 889, 889, 888, 887, 887, 887, 884, 883, 883, 883, 883, 882, 878, 877, 877, 876, 875, 875, 874, 872, 872, 872, 870, 869, 869, 869, 867, 867, 867, 867, 866, 866, 865, 864, 864, 863, 863, 860, 860, 859, 858, 858, 858, 856, 855, 854, 853, 852, 851, 851, 850, 848, 848, 847, 847, 845, 843, 841, 841, 841, 840, 840, 840, 840, 832, 832, 831, 828, 828, 827, 826, 825, 825, 823, 822, 822, 822, 822, 819, 819, 817, 816, 815, 815, 815, 814, 813, 812, 811, 811, 809, 806, 805, 804, 804, 804, 804, 802, 802, 801, 801, 800, 798, 793, 792, 792, 790, 789, 789, 784, 784, 783, 782, 781, 780, 780, 778, 778, 776, 775, 774, 770, 767, 766, 764, 761, 760, 760, 758, 758, 757, 757, 752, 751, 750, 750, 747, 743, 740, 739, 738, 735, 735, 732, 729, 727, 726, 719, 719, 717, 714, 712, 711, 707, 700, 697, 695, 688, 683, 673, 672, 671, 667, 662, 661, 646, 645, 640, 639, 630, 626, 624, 621, 606, 603, 594, 594, 579, 573, 568, 558, 540, 540, 517, 497, 492]}, {"hovertemplate": "Elo: %{x:f}<br>In the top %{y:f}%<extra></extra>", "mode": "lines", "opacity": 0, "type": "scatter", "x": [2181, 2158, 2142, 2108, 2091, 2047, 2016, 2013, 2011, 1983, 1975, 1961, 1956, 1951, 1949, 1945, 1944, 1937, 1910, 1910, 1896, 1885, 1877, 1860, 1854, 1850, 1849, 1842, 1836, 1823, 1819, 1809, 1808, 1798, 1772, 1765, 1759, 1754, 1754, 1749, 1747, 1746, 1746, 1737, 1732, 1732, 1732, 1721, 1720, 1720, 1716, 1709, 1704, 1702, 1693, 1692, 1689, 1689, 1684, 1679, 1679, 1678, 1672, 1670, 1666, 1664, 1663, 1659, 1658, 1656, 1649, 1643, 1639, 1632, 1625, 1624, 1608, 1605, 1605, 1605, 1603, 1597, 1592, 1591, 1589, 1585, 1584, 1583, 1583, 1582, 1580, 1579, 1579, 1577, 1574, 1567, 1564, 1564, 1562, 1559, 1558, 1557, 1554, 1553, 1553, 1552, 1550, 1550, 1549, 1544, 1542, 1535, 1533, 1532, 1531, 1529, 1528, 1526, 1526, 1525, 1525, 1523, 1521, 1521, 1520, 1520, 1518, 1517, 1512, 1509, 1509, 1506, 1502, 1502, 1499, 1498, 1498, 1496, 1495, 1492, 1492, 1489, 1488, 1487, 1486, 1482, 1481, 1481, 1480, 1477, 1476, 1474, 1474, 1474, 1473, 1469, 1463, 1462, 1460, 1458, 1456, 1456, 1455, 1453, 1450, 1447, 1446, 1445, 1443, 1442, 1441, 1440, 1439, 1433, 1431, 1427, 1426, 1424, 1424, 1423, 1421, 1420, 1420, 1416, 1416, 1416, 1412, 1409, 1409, 1408, 1408, 1408, 1408, 1407, 1402, 1399, 1399, 1398, 1398, 1394, 1394, 1394, 1392, 1392, 1391, 1388, 1388, 1386, 1386, 1384, 1384, 1383, 1381, 1381, 1381, 1380, 1379, 1379, 1378, 1377, 1377, 1377, 1376, 1375, 1372, 1372, 1371, 1370, 1370, 1370, 1369, 1369, 1369, 1368, 1368, 1367, 1367, 1366, 1366, 1366, 1366, 1364, 1364, 1363, 1363, 1361, 1360, 1359, 1359, 1358, 1356, 1356, 1356, 1355, 1355, 1354, 1353, 1353, 1350, 1350, 1349, 1348, 1347, 1347, 1346, 1346, 1344, 1344, 1340, 1339, 1339, 1338, 1337, 1337, 1335, 1333, 1332, 1331, 1330, 1329, 1325, 1324, 1324, 1323, 1323, 1321, 1321, 1321, 1321, 1321, 1320, 1319, 1318, 1316, 1316, 1315, 1315, 1314, 1314, 1314, 1313, 1313, 1313, 1313, 1311, 1310, 1310, 1310, 1308, 1306, 1306, 1305, 1304, 1302, 1301, 1301, 1301, 1300, 1299, 1296, 1295, 1294, 1294, 1290, 1290, 1288, 1288, 1288, 1286, 1284, 1283, 1282, 1282, 1280, 1280, 1279, 1279, 1275, 1275, 1275, 1272, 1272, 1271, 1271, 1270, 1270, 1270, 1269, 1269, 1269, 1267, 1266, 1266, 1264, 1261, 1258, 1258, 1257, 1257, 1257, 1255, 1254, 1254, 1254, 1254, 1253, 1252, 1252, 1252, 1249, 1249, 1248, 1248, 1247, 1247, 1246, 1246, 1245, 1244, 1243, 1242, 1242, 1241, 1240, 1240, 1239, 1239, 1239, 1238, 1238, 1238, 1237, 1237, 1237, 1237, 1236, 1236, 1236, 1235, 1235, 1235, 1235, 1234, 1234, 1233, 1233, 1232, 1232, 1231, 1230, 1229, 1229, 1229, 1229, 1229, 1228, 1228, 1227, 1223, 1222, 1222, 1222, 1221, 1219, 1218, 1218, 1218, 1217, 1217, 1217, 1216, 1215, 1215, 1215, 1215, 1214, 1214, 1214, 1212, 1212, 1211, 1210, 1210, 1208, 1208, 1207, 1207, 1207, 1206, 1205, 1205, 1204, 1203, 1202, 1201, 1200, 1199, 1199, 1198, 1198, 1198, 1198, 1197, 1197, 1197, 1197, 1195, 1194, 1193, 1193, 1192, 1190, 1190, 1190, 1189, 1188, 1186, 1185, 1185, 1185, 1183, 1183, 1183, 1182, 1181, 1181, 1181, 1180, 1180, 1180, 1180, 1179, 1179, 1178, 1178, 1178, 1177, 1177, 1176, 1176, 1176, 1175, 1175, 1175, 1173, 1173, 1172, 1171, 1171, 1171, 1170, 1169, 1169, 1167, 1166, 1166, 1166, 1164, 1164, 1164, 1163, 1162, 1161, 1160, 1159, 1159, 1158, 1158, 1157, 1156, 1155, 1155, 1154, 1153, 1152, 1152, 1152, 1150, 1150, 1149, 1149, 1147, 1145, 1145, 1144, 1144, 1144, 1143, 1143, 1141, 1141, 1141, 1141, 1139, 1138, 1138, 1137, 1136, 1136, 1136, 1136, 1136, 1136, 1135, 1134, 1134, 1134, 1134, 1132, 1131, 1131, 1130, 1130, 1128, 1125, 1124, 1124, 1123, 1123, 1123, 1122, 1121, 1120, 1120, 1119, 1118, 1118, 1117, 1117, 1117, 1117, 1116, 1116, 1116, 1116, 1115, 1114, 1113, 1113, 1111, 1110, 1110, 1109, 1109, 1109, 1107, 1105, 1105, 1105, 1104, 1104, 1103, 1102, 1102, 1101, 1101, 1100, 1100, 1100, 1100, 1099, 1098, 1097, 1095, 1094, 1094, 1093, 1093, 1092, 1092, 1092, 1091, 1090, 1090, 1090, 1090, 1089, 1089, 1088, 1088, 1088, 1088, 1088, 1087, 1087, 1087, 1086, 1086, 1085, 1085, 1084, 1082, 1081, 1081, 1080, 1079, 1078, 1078, 1078, 1077, 1077, 1077, 1076, 1076, 1075, 1074, 1074, 1074, 1072, 1072, 1072, 1070, 1070, 1070, 1069, 1069, 1068, 1067, 1067, 1067, 1066, 1066, 1065, 1064, 1064, 1064, 1064, 1062, 1062, 1061, 1061, 1059, 1058, 1058, 1057, 1057, 1057, 1057, 1057, 1056, 1055, 1055, 1054, 1054, 1053, 1053, 1053, 1053, 1053, 1052, 1051, 1050, 1050, 1049, 1048, 1047, 1047, 1047, 1047, 1046, 1045, 1045, 1045, 1045, 1045, 1044, 1044, 1044, 1044, 1042, 1042, 1042, 1041, 1041, 1040, 1039, 1039, 1039, 1039, 1038, 1038, 1037, 1037, 1036, 1036, 1035, 1034, 1034, 1033, 1033, 1032, 1032, 1032, 1031, 1031, 1031, 1030, 1029, 1029, 1028, 1028, 1028, 1027, 1027, 1026, 1026, 1025, 1025, 1025, 1025, 1024, 1023, 1023, 1022, 1022, 1019, 1019, 1018, 1017, 1015, 1015, 1014, 1014, 1013, 1013, 1013, 1013, 1011, 1011, 1010, 1009, 1009, 1008, 1007, 1007, 1005, 1005, 1005, 1004, 1004, 1004, 1003, 1002, 1002, 1000, 999, 999, 999, 999, 998, 998, 997, 997, 996, 996, 996, 994, 994, 993, 992, 991, 990, 990, 990, 989, 989, 989, 989, 988, 987, 986, 986, 986, 986, 985, 984, 984, 984, 984, 984, 983, 982, 981, 981, 980, 980, 979, 978, 978, 978, 977, 976, 975, 974, 974, 974, 974, 974, 973, 973, 973, 973, 972, 971, 970, 970, 969, 969, 967, 966, 965, 964, 963, 963, 963, 963, 962, 961, 961, 961, 961, 960, 959, 959, 958, 958, 957, 957, 957, 957, 957, 956, 956, 956, 955, 954, 952, 952, 951, 950, 950, 948, 948, 947, 947, 946, 945, 945, 945, 945, 945, 944, 943, 943, 941, 940, 939, 939, 939, 939, 938, 937, 936, 935, 934, 934, 931, 931, 930, 928, 928, 928, 928, 927, 926, 926, 925, 925, 923, 923, 921, 920, 920, 920, 919, 918, 917, 917, 916, 915, 915, 914, 914, 914, 914, 913, 913, 913, 912, 911, 911, 911, 910, 909, 909, 908, 908, 908, 907, 907, 906, 905, 902, 901, 900, 900, 900, 899, 899, 899, 899, 898, 898, 897, 897, 897, 894, 893, 892, 891, 891, 890, 889, 889, 888, 887, 887, 887, 884, 883, 883, 883, 883, 882, 878, 877, 877, 876, 875, 875, 874, 872, 872, 872, 870, 869, 869, 869, 867, 867, 867, 867, 866, 866, 865, 864, 864, 863, 863, 860, 860, 859, 858, 858, 858, 856, 855, 854, 853, 852, 851, 851, 850, 848, 848, 847, 847, 845, 843, 841, 841, 841, 840, 840, 840, 840, 832, 832, 831, 828, 828, 827, 826, 825, 825, 823, 822, 822, 822, 822, 819, 819, 817, 816, 815, 815, 815, 814, 813, 812, 811, 811, 809, 806, 805, 804, 804, 804, 804, 802, 802, 801, 801, 800, 798, 793, 792, 792, 790, 789, 789, 784, 784, 783, 782, 781, 780, 780, 778, 778, 776, 775, 774, 770, 767, 766, 764, 761, 760, 760, 758, 758, 757, 757, 752, 751, 750, 750, 747, 743, 740, 739, 738, 735, 735, 732, 729, 727, 726, 719, 719, 717, 714, 712, 711, 707, 700, 697, 695, 688, 683, 673, 672, 671, 667, 662, 661, 646, 645, 640, 639, 630, 626, 624, 621, 606, 603, 594, 594, 579, 573, 568, 558, 540, 540, 517, 497, 492], "y": [0.04244482173174635, 0.12733446519525016, 0.21222410865874286, 0.29711375212223556, 0.38200339558573937, 0.4668930390492321, 0.5517826825127359, 0.6366723259762286, 0.7215619694397324, 0.8064516129032251, 0.8913412563667178, 0.9762308998302216, 1.0611205432937143, 1.146010186757218, 1.2308998302207108, 1.3157894736842146, 1.4006791171477073, 1.4855687606112, 1.6129032258064502, 1.6129032258064502, 1.7402376910017003, 1.825127334465193, 1.9100169779286968, 1.9949066213921895, 2.0797962648556823, 2.164685908319186, 2.2495755517826788, 2.3344651952461826, 2.4193548387096753, 2.504244482173179, 2.589134125636672, 2.6740237691001645, 2.7589134125636683, 2.843803056027161, 2.928692699490665, 3.0135823429541575, 3.0984719864176613, 3.2258064516129004, 3.2258064516129004, 3.3531409168081505, 3.438030560271643, 3.5653650254668934, 3.5653650254668934, 3.6926994906621435, 3.862478777589129, 3.862478777589129, 3.862478777589129, 4.0322580645161255, 4.159592529711375, 4.159592529711375, 4.286926994906626, 4.3718166383701185, 4.456706281833611, 4.5415959252971145, 4.626485568760607, 4.7113752122241115, 4.8387096774193505, 4.8387096774193505, 4.966044142614601, 5.093378607809851, 5.093378607809851, 5.22071307300509, 5.305602716468593, 5.390492359932086, 5.47538200339559, 5.560271646859083, 5.645161290322576, 5.73005093378608, 5.814940577249573, 5.899830220713076, 5.984719864176569, 6.069609507640072, 6.154499151103565, 6.239388794567057, 6.324278438030562, 6.409168081494054, 6.494057724957559, 6.663837011884555, 6.663837011884555, 6.663837011884555, 6.83361629881154, 6.9185059422750435, 7.003395585738536, 7.08828522920204, 7.173174872665533, 7.258064516129037, 7.34295415959253, 7.47028862478778, 7.47028862478778, 7.597623089983019, 7.682512733446522, 7.809847198641762, 7.809847198641762, 7.937181663837012, 8.022071307300504, 8.106960950764009, 8.23429541595926, 8.23429541595926, 8.361629881154498, 8.446519524618001, 8.531409168081494, 8.616298811544986, 8.701188455008491, 8.82852292020373, 8.82852292020373, 8.95585738539898, 9.083191850594229, 9.083191850594229, 9.210526315789469, 9.295415959252972, 9.380305602716465, 9.46519524617997, 9.550084889643461, 9.634974533106966, 9.719864176570459, 9.804753820033952, 9.889643463497455, 10.016977928692693, 10.016977928692693, 10.186757215619691, 10.186757215619691, 10.31409168081494, 10.44142614601019, 10.44142614601019, 10.611205432937176, 10.611205432937176, 10.738539898132426, 10.82342954159593, 10.908319185059423, 11.035653650254673, 11.035653650254673, 11.162988115449913, 11.290322580645162, 11.290322580645162, 11.417657045840413, 11.54499151103565, 11.54499151103565, 11.672325976230901, 11.757215619694394, 11.884550084889645, 11.884550084889645, 12.011884550084895, 12.096774193548388, 12.18166383701188, 12.266553480475384, 12.351443123938877, 12.478777589134127, 12.478777589134127, 12.606112054329376, 12.69100169779287, 12.775891341256361, 12.94567062818336, 12.94567062818336, 12.94567062818336, 13.115449915110355, 13.200339558573859, 13.285229202037351, 13.370118845500844, 13.45500848896435, 13.53989813242784, 13.66723259762309, 13.66723259762309, 13.794567062818341, 13.879456706281834, 13.964346349745327, 14.04923599320883, 14.134125636672323, 14.219015280135828, 14.303904923599319, 14.388794567062824, 14.473684210526317, 14.55857385398981, 14.643463497453313, 14.728353140916806, 14.813242784380309, 14.898132427843802, 14.983022071307307, 15.110356536502545, 15.110356536502545, 15.237691001697796, 15.322580645161288, 15.449915110356539, 15.449915110356539, 15.66213921901528, 15.66213921901528, 15.66213921901528, 15.831918505942276, 15.959252971137516, 15.959252971137516, 16.213921901528018, 16.213921901528018, 16.213921901528018, 16.213921901528018, 16.42614601018676, 16.511035653650254, 16.6383701188455, 16.6383701188455, 16.8081494057725, 16.8081494057725, 17.020373514431242, 17.020373514431242, 17.020373514431242, 17.232597623089983, 17.232597623089983, 17.359932088285223, 17.487266553480474, 17.487266553480474, 17.65704584040747, 17.65704584040747, 17.826825127334466, 17.826825127334466, 17.954159592529706, 18.123938879456702, 18.123938879456702, 18.123938879456702, 18.293718166383698, 18.42105263157895, 18.42105263157895, 18.54838709677419, 18.718166383701185, 18.718166383701185, 18.718166383701185, 18.88794567062818, 18.972835314091686, 19.100169779286922, 19.100169779286922, 19.227504244482173, 19.397283531409172, 19.397283531409172, 19.397283531409172, 19.65195246179966, 19.65195246179966, 19.65195246179966, 19.864176570458405, 19.864176570458405, 20.0339558573854, 20.0339558573854, 20.288624787775888, 20.288624787775888, 20.288624787775888, 20.288624787775888, 20.54329371816639, 20.54329371816639, 20.713073005093374, 20.713073005093374, 20.840407470288625, 20.925297113752116, 21.052631578947366, 21.052631578947366, 21.179966044142617, 21.349745331069613, 21.349745331069613, 21.349745331069613, 21.561969439728358, 21.561969439728358, 21.689303904923595, 21.816638370118845, 21.816638370118845, 21.98641765704584, 21.98641765704584, 22.11375212224108, 22.198641765704586, 22.325976230899837, 22.325976230899837, 22.495755517826822, 22.495755517826822, 22.66553480475382, 22.66553480475382, 22.79286926994907, 22.92020373514432, 22.92020373514432, 23.047538200339556, 23.174872665534807, 23.174872665534807, 23.302207130730046, 23.38709677419355, 23.471986417657043, 23.556876061120548, 23.64176570458404, 23.726655348047544, 23.811544991511035, 23.938879456706285, 23.938879456706285, 24.10865874363328, 24.10865874363328, 24.405772495755517, 24.405772495755517, 24.405772495755517, 24.405772495755517, 24.405772495755517, 24.660441426146008, 24.74533106960951, 24.830220713073004, 24.957555178268255, 24.957555178268255, 25.12733446519525, 25.12733446519525, 25.339558573853992, 25.339558573853992, 25.339558573853992, 25.636672325976228, 25.636672325976228, 25.636672325976228, 25.636672325976228, 25.848896434634973, 26.01867572156197, 26.01867572156197, 26.01867572156197, 26.188455008488965, 26.315789473684216, 26.315789473684216, 26.443123938879452, 26.528013582342957, 26.61290322580645, 26.782682512733448, 26.782682512733448, 26.782682512733448, 26.952461799660444, 27.037351443123935, 27.12224108658744, 27.20713073005093, 27.33446519524618, 27.33446519524618, 27.504244482173178, 27.504244482173178, 27.716468590831923, 27.716468590831923, 27.716468590831923, 27.88624787775892, 27.97113752122241, 28.056027164685904, 28.183361629881155, 28.183361629881155, 28.35314091680815, 28.35314091680815, 28.522920203735147, 28.522920203735147, 28.73514431239389, 28.73514431239389, 28.73514431239389, 28.947368421052634, 28.947368421052634, 29.11714770797963, 29.11714770797963, 29.32937181663837, 29.32937181663837, 29.32937181663837, 29.58404074702886, 29.58404074702886, 29.58404074702886, 29.753820033955858, 29.88115449915111, 29.88115449915111, 30.00848896434635, 30.09337860780985, 30.22071307300509, 30.22071307300509, 30.43293718166383, 30.43293718166383, 30.43293718166383, 30.602716468590828, 30.814940577249573, 30.814940577249573, 30.814940577249573, 30.814940577249573, 31.027164685908314, 31.19694397283531, 31.19694397283531, 31.19694397283531, 31.409168081494055, 31.409168081494055, 31.57894736842105, 31.57894736842105, 31.748726655348047, 31.748726655348047, 31.918505942275043, 31.918505942275043, 32.045840407470294, 32.130730050933785, 32.215619694397276, 32.34295415959253, 32.34295415959253, 32.47028862478778, 32.59762308998302, 32.59762308998302, 32.80984719864176, 32.80984719864176, 32.80984719864176, 33.06451612903226, 33.06451612903226, 33.06451612903226, 33.3616298811545, 33.3616298811545, 33.3616298811545, 33.3616298811545, 33.65874363327674, 33.65874363327674, 33.65874363327674, 33.95585738539898, 33.95585738539898, 33.95585738539898, 33.95585738539898, 34.210526315789465, 34.210526315789465, 34.38030560271647, 34.38030560271647, 34.550084889643465, 34.550084889643465, 34.67741935483871, 34.7623089983022, 35.0169779286927, 35.0169779286927, 35.0169779286927, 35.0169779286927, 35.0169779286927, 35.31409168081494, 35.31409168081494, 35.441426146010194, 35.526315789473685, 35.69609507640068, 35.69609507640068, 35.69609507640068, 35.86587436332768, 35.95076400679117, 36.120543293718164, 36.120543293718164, 36.120543293718164, 36.37521222410866, 36.37521222410866, 36.37521222410866, 36.544991511035654, 36.75721561969439, 36.75721561969439, 36.75721561969439, 36.75721561969439, 37.05432937181664, 37.05432937181664, 37.05432937181664, 37.26655348047538, 37.26655348047538, 37.39388794567062, 37.521222410865875, 37.521222410865875, 37.69100169779287, 37.69100169779287, 37.903225806451616, 37.903225806451616, 37.903225806451616, 38.07300509337861, 38.20033955857386, 38.20033955857386, 38.3276740237691, 38.412563667232604, 38.497453310696095, 38.582342954159586, 38.66723259762309, 38.794567062818345, 38.794567062818345, 39.04923599320883, 39.04923599320883, 39.04923599320883, 39.04923599320883, 39.388794567062824, 39.388794567062824, 39.388794567062824, 39.388794567062824, 39.60101867572157, 39.68590831918506, 39.81324278438031, 39.81324278438031, 39.94057724957555, 40.11035653650254, 40.11035653650254, 40.11035653650254, 40.28013582342954, 40.36502546689304, 40.449915110356535, 40.61969439728353, 40.61969439728353, 40.61969439728353, 40.874363327674025, 40.874363327674025, 40.874363327674025, 41.04414261460102, 41.21392190152802, 41.21392190152802, 41.21392190152802, 41.511035653650254, 41.511035653650254, 41.511035653650254, 41.511035653650254, 41.76570458404074, 41.76570458404074, 41.97792869269949, 41.97792869269949, 41.97792869269949, 42.19015280135824, 42.19015280135824, 42.40237691001698, 42.40237691001698, 42.40237691001698, 42.65704584040747, 42.65704584040747, 42.65704584040747, 42.869269949066215, 42.869269949066215, 42.99660441426146, 43.16638370118846, 43.16638370118846, 43.16638370118846, 43.33616298811545, 43.463497453310694, 43.463497453310694, 43.59083191850595, 43.760611205432944, 43.760611205432944, 43.760611205432944, 44.01528013582343, 44.01528013582343, 44.01528013582343, 44.18505942275043, 44.26994906621392, 44.35483870967742, 44.439728353140914, 44.56706281833617, 44.56706281833617, 44.73684210526315, 44.73684210526315, 44.864176570458405, 44.94906621392191, 45.07640067911714, 45.07640067911714, 45.2037351443124, 45.28862478777589, 45.458404074702884, 45.458404074702884, 45.458404074702884, 45.67062818336163, 45.67062818336163, 45.840407470288625, 45.840407470288625, 45.96774193548387, 46.09507640067911, 46.09507640067911, 46.30730050933786, 46.30730050933786, 46.30730050933786, 46.5195246179966, 46.5195246179966, 46.7741935483871, 46.7741935483871, 46.7741935483871, 46.7741935483871, 46.98641765704584, 47.11375212224108, 47.11375212224108, 47.24108658743633, 47.53820033955858, 47.53820033955858, 47.53820033955858, 47.53820033955858, 47.53820033955858, 47.53820033955858, 47.835314091680814, 48.04753820033956, 48.04753820033956, 48.04753820033956, 48.04753820033956, 48.2597623089983, 48.38709677419355, 48.38709677419355, 48.55687606112055, 48.55687606112055, 48.68421052631579, 48.76910016977929, 48.896434634974526, 48.896434634974526, 49.108658743633285, 49.108658743633285, 49.108658743633285, 49.27843803056027, 49.36332767402377, 49.49066213921901, 49.49066213921901, 49.61799660441426, 49.74533106960951, 49.74533106960951, 50.0, 50.0, 50.0, 50.0, 50.33955857385399, 50.33955857385399, 50.33955857385399, 50.33955857385399, 50.55178268251274, 50.63667232597623, 50.76400679117148, 50.76400679117148, 50.891341256366715, 51.01867572156197, 51.01867572156197, 51.23089983022071, 51.23089983022071, 51.23089983022071, 51.40067911714771, 51.57045840407471, 51.57045840407471, 51.57045840407471, 51.782682512733444, 51.782682512733444, 51.9100169779287, 52.03735144312394, 52.03735144312394, 52.207130730050935, 52.207130730050935, 52.46179966044142, 52.46179966044142, 52.46179966044142, 52.46179966044142, 52.674023769100174, 52.75891341256367, 52.84380305602716, 52.92869269949067, 53.056027164685915, 53.056027164685915, 53.2258064516129, 53.2258064516129, 53.438030560271656, 53.438030560271656, 53.438030560271656, 53.60780984719864, 53.8200339558574, 53.8200339558574, 53.8200339558574, 53.8200339558574, 54.07470288624787, 54.07470288624787, 54.37181663837012, 54.37181663837012, 54.37181663837012, 54.37181663837012, 54.37181663837012, 54.71137521222411, 54.71137521222411, 54.71137521222411, 54.92359932088286, 54.92359932088286, 55.09337860780985, 55.09337860780985, 55.220713073005086, 55.305602716468584, 55.432937181663846, 55.432937181663846, 55.560271646859086, 55.64516129032258, 55.81494057724959, 55.81494057724959, 55.81494057724959, 56.06960950764006, 56.06960950764006, 56.06960950764006, 56.28183361629881, 56.28183361629881, 56.40916808149405, 56.57894736842105, 56.57894736842105, 56.57894736842105, 56.83361629881154, 56.83361629881154, 56.83361629881154, 57.08828522920204, 57.08828522920204, 57.08828522920204, 57.30050933786078, 57.30050933786078, 57.427843803056035, 57.59762308998302, 57.59762308998302, 57.59762308998302, 57.809847198641776, 57.809847198641776, 57.93718166383701, 58.149405772495754, 58.149405772495754, 58.149405772495754, 58.149405772495754, 58.40407470288624, 58.40407470288624, 58.57385398981324, 58.57385398981324, 58.70118845500849, 58.82852292020373, 58.82852292020373, 59.125636672325975, 59.125636672325975, 59.125636672325975, 59.125636672325975, 59.125636672325975, 59.380305602716476, 59.507640067911716, 59.507640067911716, 59.67741935483871, 59.67741935483871, 59.97453310696095, 59.97453310696095, 59.97453310696095, 59.97453310696095, 59.97453310696095, 60.22920203735145, 60.31409168081494, 60.44142614601018, 60.44142614601018, 60.56876061120544, 60.65365025466893, 60.86587436332768, 60.86587436332768, 60.86587436332768, 60.86587436332768, 61.07809847198642, 61.33276740237691, 61.33276740237691, 61.33276740237691, 61.33276740237691, 61.33276740237691, 61.71477079796265, 61.71477079796265, 61.71477079796265, 61.71477079796265, 62.011884550084886, 62.011884550084886, 62.011884550084886, 62.22410865874364, 62.22410865874364, 62.35144312393888, 62.56366723259763, 62.56366723259763, 62.56366723259763, 62.56366723259763, 62.81833616298811, 62.81833616298811, 62.988115449915114, 62.988115449915114, 63.1578947368421, 63.1578947368421, 63.28522920203735, 63.412563667232604, 63.412563667232604, 63.582342954159586, 63.582342954159586, 63.794567062818345, 63.794567062818345, 63.794567062818345, 64.04923599320882, 64.04923599320882, 64.04923599320882, 64.21901528013582, 64.34634974533107, 64.34634974533107, 64.55857385398983, 64.55857385398983, 64.55857385398983, 64.77079796264856, 64.77079796264856, 64.94057724957555, 64.94057724957555, 65.19524617996603, 65.19524617996603, 65.19524617996603, 65.19524617996603, 65.4074702886248, 65.53480475382003, 65.53480475382003, 65.70458404074702, 65.70458404074702, 65.87436332767402, 65.87436332767402, 66.00169779286927, 66.08658743633276, 66.21392190152801, 66.21392190152801, 66.383701188455, 66.383701188455, 66.6383701188455, 66.6383701188455, 66.6383701188455, 66.6383701188455, 66.893039049236, 66.893039049236, 67.02037351443124, 67.14770797962647, 67.14770797962647, 67.27504244482174, 67.40237691001698, 67.40237691001698, 67.61460101867573, 67.61460101867573, 67.61460101867573, 67.86926994906621, 67.86926994906621, 67.86926994906621, 68.0390492359932, 68.16638370118847, 68.16638370118847, 68.2937181663837, 68.50594227504246, 68.50594227504246, 68.50594227504246, 68.50594227504246, 68.76061120543294, 68.76061120543294, 68.93039049235993, 68.93039049235993, 69.14261460101866, 69.14261460101866, 69.14261460101866, 69.35483870967742, 69.35483870967742, 69.48217317487266, 69.56706281833615, 69.65195246179967, 69.82173174872666, 69.82173174872666, 69.82173174872666, 70.1188455008489, 70.1188455008489, 70.1188455008489, 70.1188455008489, 70.33106960950764, 70.41595925297113, 70.62818336162988, 70.62818336162988, 70.62818336162988, 70.62818336162988, 70.84040747028862, 71.09507640067912, 71.09507640067912, 71.09507640067912, 71.09507640067912, 71.09507640067912, 71.34974533106961, 71.43463497453311, 71.56196943972834, 71.56196943972834, 71.73174872665535, 71.73174872665535, 71.85908319185059, 72.02886247877758, 72.02886247877758, 72.02886247877758, 72.19864176570458, 72.28353140916808, 72.36842105263158, 72.62308998302207, 72.62308998302207, 72.62308998302207, 72.62308998302207, 72.62308998302207, 73.00509337860781, 73.00509337860781, 73.00509337860781, 73.00509337860781, 73.21731748726656, 73.30220713073005, 73.4295415959253, 73.4295415959253, 73.5993208828523, 73.5993208828523, 73.72665534804754, 73.81154499151104, 73.89643463497453, 73.98132427843804, 74.19354838709677, 74.19354838709677, 74.19354838709677, 74.19354838709677, 74.40577249575551, 74.61799660441426, 74.61799660441426, 74.61799660441426, 74.61799660441426, 74.830220713073, 74.95755517826825, 74.95755517826825, 75.12733446519525, 75.12733446519525, 75.42444821731749, 75.42444821731749, 75.42444821731749, 75.42444821731749, 75.42444821731749, 75.76400679117148, 75.76400679117148, 75.76400679117148, 75.93378607809848, 76.01867572156196, 76.14601018675722, 76.14601018675722, 76.27334465195246, 76.4006791171477, 76.4006791171477, 76.5704584040747, 76.5704584040747, 76.7402376910017, 76.7402376910017, 76.86757215619696, 77.12224108658744, 77.12224108658744, 77.12224108658744, 77.12224108658744, 77.12224108658744, 77.37691001697793, 77.50424448217316, 77.50424448217316, 77.63157894736842, 77.71646859083192, 77.92869269949067, 77.92869269949067, 77.92869269949067, 77.92869269949067, 78.14091680814941, 78.2258064516129, 78.31069609507641, 78.39558573853989, 78.52292020373514, 78.52292020373514, 78.69269949066214, 78.69269949066214, 78.82003395585738, 79.03225806451613, 79.03225806451613, 79.03225806451613, 79.03225806451613, 79.24448217317487, 79.37181663837012, 79.37181663837012, 79.54159592529712, 79.54159592529712, 79.71137521222411, 79.71137521222411, 79.83870967741935, 80.00848896434634, 80.00848896434634, 80.00848896434634, 80.17826825127334, 80.26315789473684, 80.39049235993208, 80.39049235993208, 80.51782682512734, 80.64516129032258, 80.64516129032258, 80.89983022071307, 80.89983022071307, 80.89983022071307, 80.89983022071307, 81.19694397283531, 81.19694397283531, 81.19694397283531, 81.36672325976231, 81.5365025466893, 81.5365025466893, 81.5365025466893, 81.7062818336163, 81.83361629881153, 81.83361629881153, 82.0458404074703, 82.0458404074703, 82.0458404074703, 82.25806451612902, 82.25806451612902, 82.38539898132427, 82.47028862478778, 82.55517826825127, 82.64006791171477, 82.80984719864176, 82.80984719864176, 82.80984719864176, 83.106960950764, 83.106960950764, 83.106960950764, 83.106960950764, 83.3616298811545, 83.3616298811545, 83.57385398981324, 83.57385398981324, 83.57385398981324, 83.74363327674024, 83.82852292020372, 83.91341256366724, 84.04074702886248, 84.04074702886248, 84.16808149405772, 84.29541595925298, 84.29541595925298, 84.42275042444822, 84.5925297113752, 84.5925297113752, 84.5925297113752, 84.7623089983022, 84.97453310696095, 84.97453310696095, 84.97453310696095, 84.97453310696095, 85.18675721561969, 85.27164685908319, 85.39898132427844, 85.39898132427844, 85.52631578947368, 85.65365025466893, 85.65365025466893, 85.78098471986418, 85.95076400679118, 85.95076400679118, 85.95076400679118, 86.12054329371817, 86.29032258064517, 86.29032258064517, 86.29032258064517, 86.5874363327674, 86.5874363327674, 86.5874363327674, 86.5874363327674, 86.8421052631579, 86.8421052631579, 86.96943972835314, 87.09677419354838, 87.09677419354838, 87.26655348047538, 87.26655348047538, 87.43633276740238, 87.43633276740238, 87.56366723259762, 87.73344651952462, 87.73344651952462, 87.73344651952462, 87.90322580645162, 87.98811544991511, 88.07300509337861, 88.1578947368421, 88.24278438030561, 88.37011884550084, 88.37011884550084, 88.4974533106961, 88.62478777589135, 88.62478777589135, 88.79456706281834, 88.79456706281834, 88.92190152801358, 89.00679117147709, 89.17657045840409, 89.17657045840409, 89.17657045840409, 89.47368421052632, 89.47368421052632, 89.47368421052632, 89.47368421052632, 89.72835314091681, 89.72835314091681, 89.85568760611206, 89.9830220713073, 89.9830220713073, 90.11035653650255, 90.19524617996605, 90.32258064516128, 90.32258064516128, 90.44991511035654, 90.66213921901529, 90.66213921901529, 90.66213921901529, 90.66213921901529, 90.91680814940577, 90.91680814940577, 91.04414261460101, 91.12903225806451, 91.29881154499151, 91.29881154499151, 91.29881154499151, 91.4685908319185, 91.553480475382, 91.6383701188455, 91.76570458404075, 91.76570458404075, 91.893039049236, 91.97792869269949, 92.06281833616299, 92.27504244482174, 92.27504244482174, 92.27504244482174, 92.27504244482174, 92.52971137521222, 92.52971137521222, 92.69949066213921, 92.69949066213921, 92.82682512733447, 92.91171477079796, 92.99660441426147, 93.1239388794567, 93.1239388794567, 93.25127334465195, 93.3786078098472, 93.3786078098472, 93.5483870967742, 93.5483870967742, 93.67572156196944, 93.76061120543294, 93.84550084889644, 93.97283531409168, 93.97283531409168, 94.14261460101866, 94.14261460101866, 94.26994906621393, 94.35483870967742, 94.43972835314092, 94.5246179966044, 94.60950764006792, 94.6943972835314, 94.77928692699491, 94.8641765704584, 94.99151103565366, 94.99151103565366, 95.16129032258065, 95.16129032258065, 95.33106960950764, 95.33106960950764, 95.45840407470288, 95.54329371816638, 95.67062818336163, 95.67062818336163, 95.79796264855688, 95.88285229202037, 95.96774193548387, 96.05263157894737, 96.13752122241087, 96.26485568760611, 96.26485568760611, 96.39219015280136, 96.47707979626486, 96.56196943972836, 96.64685908319186, 96.7741935483871, 96.7741935483871, 96.90152801358234, 96.98641765704585, 97.07130730050933, 97.15619694397284, 97.24108658743633, 97.32597623089984, 97.41086587436332, 97.49575551782682, 97.58064516129032, 97.66553480475382, 97.75042444821732, 97.83531409168081, 97.92020373514431, 98.00509337860781, 98.08998302207131, 98.1748726655348, 98.2597623089983, 98.3446519524618, 98.4295415959253, 98.5144312393888, 98.5993208828523, 98.68421052631578, 98.76910016977929, 98.85398981324278, 98.93887945670629, 99.02376910016977, 99.15110356536503, 99.15110356536503, 99.27843803056027, 99.36332767402376, 99.44821731748726, 99.53310696095076, 99.66044142614601, 99.66044142614601, 99.78777589134125, 99.87266553480475, 99.95755517826825]}],
                        {"barmode": "overlay", "hovermode": "x unified", "showlegend": false, "template": {"data": {"bar": [{"error_x": {"color": "#2a3f5f"}, "error_y": {"color": "#2a3f5f"}, "marker": {"line": {"color": "#E5ECF6", "width": 0.5}}, "type": "bar"}], "barpolar": [{"marker": {"line": {"color": "#E5ECF6", "width": 0.5}}, "type": "barpolar"}], "carpet": [{"aaxis": {"endlinecolor": "#2a3f5f", "gridcolor": "white", "linecolor": "white", "minorgridcolor": "white", "startlinecolor": "#2a3f5f"}, "baxis": {"endlinecolor": "#2a3f5f", "gridcolor": "white", "linecolor": "white", "minorgridcolor": "white", "startlinecolor": "#2a3f5f"}, "type": "carpet"}], "choropleth": [{"colorbar": {"outlinewidth": 0, "ticks": ""}, "type": "choropleth"}], "contour": [{"colorbar": {"outlinewidth": 0, "ticks": ""}, "colorscale": [[0.0, "#0d0887"], [0.1111111111111111, "#46039f"], [0.2222222222222222, "#7201a8"], [0.3333333333333333, "#9c179e"], [0.4444444444444444, "#bd3786"], [0.5555555555555556, "#d8576b"], [0.6666666666666666, "#ed7953"], [0.7777777777777778, "#fb9f3a"], [0.8888888888888888, "#fdca26"], [1.0, "#f0f921"]], "type": "contour"}], "contourcarpet": [{"colorbar": {"outlinewidth": 0, "ticks": ""}, "type": "contourcarpet"}], "heatmap": [{"colorbar": {"outlinewidth": 0, "ticks": ""}, "colorscale": [[0.0, "#0d0887"], [0.1111111111111111, "#46039f"], [0.2222222222222222, "#7201a8"], [0.3333333333333333, "#9c179e"], [0.4444444444444444, "#bd3786"], [0.5555555555555556, "#d8576b"], [0.6666666666666666, "#ed7953"], [0.7777777777777778, "#fb9f3a"], [0.8888888888888888, "#fdca26"], [1.0, "#f0f921"]], "type": "heatmap"}], "heatmapgl": [{"colorbar": {"outlinewidth": 0, "ticks": ""}, "colorscale": [[0.0, "#0d0887"], [0.1111111111111111, "#46039f"], [0.2222222222222222, "#7201a8"], [0.3333333333333333, "#9c179e"], [0.4444444444444444, "#bd3786"], [0.5555555555555556, "#d8576b"], [0.6666666666666666, "#ed7953"], [0.7777777777777778, "#fb9f3a"], [0.8888888888888888, "#fdca26"], [1.0, "#f0f921"]], "type": "heatmapgl"}], "histogram": [{"marker": {"colorbar": {"outlinewidth": 0, "ticks": ""}}, "type": "histogram"}], "histogram2d": [{"colorbar": {"outlinewidth": 0, "ticks": ""}, "colorscale": [[0.0, "#0d0887"], [0.1111111111111111, "#46039f"], [0.2222222222222222, "#7201a8"], [0.3333333333333333, "#9c179e"], [0.4444444444444444, "#bd3786"], [0.5555555555555556, "#d8576b"], [0.6666666666666666, "#ed7953"], [0.7777777777777778, "#fb9f3a"], [0.8888888888888888, "#fdca26"], [1.0, "#f0f921"]], "type": "histogram2d"}], "histogram2dcontour": [{"colorbar": {"outlinewidth": 0, "ticks": ""}, "colorscale": [[0.0, "#0d0887"], [0.1111111111111111, "#46039f"], [0.2222222222222222, "#7201a8"], [0.3333333333333333, "#9c179e"], [0.4444444444444444, "#bd3786"], [0.5555555555555556, "#d8576b"], [0.6666666666666666, "#ed7953"], [0.7777777777777778, "#fb9f3a"], [0.8888888888888888, "#fdca26"], [1.0, "#f0f921"]], "type": "histogram2dcontour"}], "mesh3d": [{"colorbar": {"outlinewidth": 0, "ticks": ""}, "type": "mesh3d"}], "parcoords": [{"line": {"colorbar": {"outlinewidth": 0, "ticks": ""}}, "type": "parcoords"}], "pie": [{"automargin": true, "type": "pie"}], "scatter": [{"marker": {"colorbar": {"outlinewidth": 0, "ticks": ""}}, "type": "scatter"}], "scatter3d": [{"line": {"colorbar": {"outlinewidth": 0, "ticks": ""}}, "marker": {"colorbar": {"outlinewidth": 0, "ticks": ""}}, "type": "scatter3d"}], "scattercarpet": [{"marker": {"colorbar": {"outlinewidth": 0, "ticks": ""}}, "type": "scattercarpet"}], "scattergeo": [{"marker": {"colorbar": {"outlinewidth": 0, "ticks": ""}}, "type": "scattergeo"}], "scattergl": [{"marker": {"colorbar": {"outlinewidth": 0, "ticks": ""}}, "type": "scattergl"}], "scattermapbox": [{"marker": {"colorbar": {"outlinewidth": 0, "ticks": ""}}, "type": "scattermapbox"}], "scatterpolar": [{"marker": {"colorbar": {"outlinewidth": 0, "ticks": ""}}, "type": "scatterpolar"}], "scatterpolargl": [{"marker": {"colorbar": {"outlinewidth": 0, "ticks": ""}}, "type": "scatterpolargl"}], "scatterternary": [{"marker": {"colorbar": {"outlinewidth": 0, "ticks": ""}}, "type": "scatterternary"}], "surface": [{"colorbar": {"outlinewidth": 0, "ticks": ""}, "colorscale": [[0.0, "#0d0887"], [0.1111111111111111, "#46039f"], [0.2222222222222222, "#7201a8"], [0.3333333333333333, "#9c179e"], [0.4444444444444444, "#bd3786"], [0.5555555555555556, "#d8576b"], [0.6666666666666666, "#ed7953"], [0.7777777777777778, "#fb9f3a"], [0.8888888888888888, "#fdca26"], [1.0, "#f0f921"]], "type": "surface"}], "table": [{"cells": {"fill": {"color": "#EBF0F8"}, "line": {"color": "white"}}, "header": {"fill": {"color": "#C8D4E3"}, "line": {"color": "white"}}, "type": "table"}]}, "layout": {"annotationdefaults": {"arrowcolor": "#2a3f5f", "arrowhead": 0, "arrowwidth": 1}, "coloraxis": {"colorbar": {"outlinewidth": 0, "ticks": ""}}, "colorscale": {"diverging": [[0, "#8e0152"], [0.1, "#c51b7d"], [0.2, "#de77ae"], [0.3, "#f1b6da"], [0.4, "#fde0ef"], [0.5, "#f7f7f7"], [0.6, "#e6f5d0"], [0.7, "#b8e186"], [0.8, "#7fbc41"], [0.9, "#4d9221"], [1, "#276419"]], "sequential": [[0.0, "#0d0887"], [0.1111111111111111, "#46039f"], [0.2222222222222222, "#7201a8"], [0.3333333333333333, "#9c179e"], [0.4444444444444444, "#bd3786"], [0.5555555555555556, "#d8576b"], [0.6666666666666666, "#ed7953"], [0.7777777777777778, "#fb9f3a"], [0.8888888888888888, "#fdca26"], [1.0, "#f0f921"]], "sequentialminus": [[0.0, "#0d0887"], [0.1111111111111111, "#46039f"], [0.2222222222222222, "#7201a8"], [0.3333333333333333, "#9c179e"], [0.4444444444444444, "#bd3786"], [0.5555555555555556, "#d8576b"], [0.6666666666666666, "#ed7953"], [0.7777777777777778, "#fb9f3a"], [0.8888888888888888, "#fdca26"], [1.0, "#f0f921"]]}, "colorway": ["#636efa", "#EF553B", "#00cc96", "#ab63fa", "#FFA15A", "#19d3f3", "#FF6692", "#B6E880", "#FF97FF", "#FECB52"], "font": {"color": "#2a3f5f"}, "geo": {"bgcolor": "white", "lakecolor": "white", "landcolor": "#E5ECF6", "showlakes": true, "showland": true, "subunitcolor": "white"}, "hoverlabel": {"align": "left"}, "hovermode": "closest", "mapbox": {"style": "light"}, "paper_bgcolor": "white", "plot_bgcolor": "#E5ECF6", "polar": {"angularaxis": {"gridcolor": "white", "linecolor": "white", "ticks": ""}, "bgcolor": "#E5ECF6", "radialaxis": {"gridcolor": "white", "linecolor": "white", "ticks": ""}}, "scene": {"xaxis": {"backgroundcolor": "#E5ECF6", "gridcolor": "white", "gridwidth": 2, "linecolor": "white", "showbackground": true, "ticks": "", "zerolinecolor": "white"}, "yaxis": {"backgroundcolor": "#E5ECF6", "gridcolor": "white", "gridwidth": 2, "linecolor": "white", "showbackground": true, "ticks": "", "zerolinecolor": "white"}, "zaxis": {"backgroundcolor": "#E5ECF6", "gridcolor": "white", "gridwidth": 2, "linecolor": "white", "showbackground": true, "ticks": "", "zerolinecolor": "white"}}, "shapedefaults": {"line": {"color": "#2a3f5f"}}, "ternary": {"aaxis": {"gridcolor": "white", "linecolor": "white", "ticks": ""}, "baxis": {"gridcolor": "white", "linecolor": "white", "ticks": ""}, "bgcolor": "#E5ECF6", "caxis": {"gridcolor": "white", "linecolor": "white", "ticks": ""}}, "title": {"x": 0.05}, "xaxis": {"automargin": true, "gridcolor": "white", "linecolor": "white", "ticks": "", "title": {"standoff": 15}, "zerolinecolor": "white", "zerolinewidth": 2}, "yaxis": {"automargin": true, "gridcolor": "white", "linecolor": "white", "ticks": "", "title": {"standoff": 15}, "zerolinecolor": "white", "zerolinewidth": 2}}}},
                        {"responsive": true}
                    )
                };
                
            </script>
        </div>
</body>
</html>