<html>
<head><meta charset="utf-8" /></head>
<body>
    <div>
        
                <script type="text/javascript">window.PlotlyConfig = {MathJaxConfig: 'local'};</script>
        <script src="https://cdn.plot.ly/plotly-latest.min.js"></script>    
            <div id="a2edf784-bcff-44e6-baba-613ee153c73d" class="plotly-graph-div" style="height:100%; width:100%;"></div>
            <script type="text/javascript">
                
                    window.PLOTLYENV=window.PLOTLYENV || {};
                    
                if (document.getElementById("a2edf784-bcff-44e6-baba-613ee153c73d")) {
                    Plotly.newPlot(
                        'a2edf784-bcff-44e6-baba-613ee153c73d',
                        [{"hoverinfo": "none", "type": "histogram", "x": [2279, 2252, 2220, 2219, 2217, 2199, 2197, 2164, 2148, 2134, 2106, 2104, 2097, 2087, 2084, 2077, 2068, 2060, 2051, 2048, 2035, 2025, 2022, 2021, 2018, 2017, 2013, 2012, 2003, 1995, 1992, 1983, 1981, 1974, 1969, 1964, 1962, 1960, 1959, 1958, 1947, 1947, 1946, 1944, 1937, 1934, 1932, 1932, 1930, 1926, 1925, 1925, 1918, 1917, 1914, 1912, 1911, 1905, 1905, 1904, 1904, 1903, 1900, 1898, 1890, 1890, 1888, 1888, 1886, 1886, 1885, 1885, 1883, 1878, 1874, 1872, 1871, 1870, 1868, 1863, 1861, 1861, 1856, 1848, 1847, 1847, 1844, 1843, 1842, 1841, 1833, 1832, 1830, 1825, 1824, 1823, 1823, 1821, 1819, 1819, 1818, 1818, 1816, 1816, 1814, 1814, 1811, 1809, 1808, 1808, 1804, 1804, 1802, 1800, 1800, 1797, 1796, 1793, 1791, 1789, 1789, 1787, 1786, 1784, 1781, 1780, 1779, 1773, 1770, 1770, 1763, 1762, 1762, 1760, 1758, 1756, 1754, 1754, 1753, 1751, 1747, 1745, 1745, 1741, 1739, 1739, 1738, 1738, 1736, 1736, 1733, 1732, 1730, 1730, 1729, 1728, 1728, 1727, 1725, 1724, 1723, 1720, 1718, 1715, 1712, 1712, 1710, 1709, 1709, 1709, 1708, 1708, 1707, 1706, 1704, 1704, 1701, 1700, 1697, 1695, 1695, 1694, 1694, 1693, 1687, 1677, 1676, 1676, 1674, 1674, 1672, 1672, 1670, 1665, 1663, 1663, 1662, 1661, 1661, 1661, 1660, 1659, 1659, 1658, 1658, 1656, 1656, 1655, 1653, 1652, 1650, 1649, 1648, 1647, 1644, 1643, 1643, 1641, 1640, 1639, 1639, 1638, 1636, 1636, 1635, 1634, 1634, 1631, 1631, 1630, 1630, 1630, 1629, 1629, 1629, 1628, 1625, 1625, 1623, 1622, 1622, 1622, 1620, 1618, 1618, 1616, 1616, 1613, 1613, 1612, 1610, 1606, 1606, 1605, 1605, 1605, 1605, 1604, 1604, 1603, 1603, 1601, 1600, 1598, 1598, 1597, 1596, 1595, 1594, 1593, 1592, 1591, 1590, 1590, 1589, 1588, 1588, 1587, 1586, 1585, 1581, 1580, 1579, 1579, 1578, 1578, 1578, 1576, 1575, 1574, 1572, 1569, 1567, 1566, 1565, 1565, 1565, 1564, 1563, 1563, 1562, 1562, 1560, 1557, 1557, 1555, 1555, 1554, 1554, 1553, 1552, 1552, 1551, 1551, 1549, 1548, 1547, 1546, 1546, 1545, 1545, 1545, 1543, 1543, 1542, 1541, 1540, 1540, 1539, 1538, 1538, 1537, 1537, 1537, 1535, 1535, 1533, 1533, 1533, 1533, 1532, 1531, 1531, 1530, 1530, 1528, 1528, 1528, 1527, 1527, 1525, 1525, 1525, 1524, 1524, 1521, 1520, 1519, 1519, 1518, 1518, 1518, 1517, 1517, 1517, 1517, 1515, 1514, 1514, 1513, 1512, 1510, 1509, 1507, 1505, 1505, 1504, 1503, 1502, 1501, 1501, 1500, 1497, 1497, 1497, 1496, 1494, 1494, 1494, 1494, 1492, 1492, 1492, 1491, 1491, 1491, 1490, 1489, 1489, 1489, 1486, 1486, 1485, 1485, 1484, 1484, 1483, 1482, 1481, 1481, 1480, 1480, 1479, 1478, 1477, 1477, 1476, 1476, 1476, 1475, 1474, 1474, 1471, 1470, 1468, 1467, 1467, 1466, 1466, 1466, 1466, 1465, 1465, 1465, 1465, 1465, 1462, 1462, 1459, 1459, 1458, 1458, 1458, 1458, 1458, 1456, 1455, 1455, 1454, 1454, 1454, 1453, 1453, 1452, 1452, 1451, 1450, 1450, 1449, 1449, 1449, 1448, 1448, 1448, 1447, 1447, 1446, 1445, 1442, 1442, 1442, 1441, 1440, 1440, 1439, 1439, 1439, 1439, 1439, 1439, 1437, 1436, 1433, 1432, 1432, 1431, 1431, 1431, 1431, 1430, 1430, 1427, 1426, 1426, 1425, 1424, 1424, 1423, 1422, 1421, 1420, 1419, 1418, 1418, 1418, 1418, 1417, 1416, 1416, 1416, 1414, 1414, 1414, 1413, 1412, 1411, 1411, 1411, 1411, 1411, 1410, 1408, 1408, 1407, 1407, 1407, 1406, 1406, 1406, 1406, 1404, 1403, 1402, 1402, 1401, 1400, 1399, 1399, 1399, 1398, 1397, 1397, 1396, 1395, 1395, 1394, 1394, 1393, 1393, 1393, 1391, 1390, 1389, 1388, 1387, 1386, 1386, 1385, 1385, 1384, 1384, 1384, 1383, 1383, 1383, 1382, 1382, 1382, 1382, 1382, 1381, 1381, 1379, 1379, 1378, 1378, 1377, 1376, 1375, 1374, 1374, 1373, 1373, 1372, 1372, 1372, 1369, 1369, 1368, 1368, 1367, 1367, 1366, 1365, 1365, 1363, 1363, 1363, 1362, 1361, 1361, 1361, 1358, 1358, 1358, 1357, 1357, 1356, 1356, 1355, 1355, 1355, 1353, 1353, 1353, 1353, 1352, 1352, 1352, 1352, 1351, 1350, 1349, 1349, 1349, 1348, 1347, 1347, 1346, 1346, 1346, 1346, 1345, 1345, 1345, 1344, 1343, 1343, 1343, 1342, 1340, 1339, 1338, 1338, 1337, 1336, 1335, 1335, 1335, 1333, 1332, 1332, 1332, 1332, 1331, 1331, 1329, 1329, 1328, 1328, 1328, 1327, 1326, 1325, 1325, 1324, 1324, 1324, 1322, 1322, 1322, 1321, 1321, 1320, 1320, 1319, 1319, 1319, 1318, 1318, 1318, 1317, 1316, 1316, 1315, 1314, 1313, 1312, 1312, 1311, 1311, 1311, 1310, 1310, 1309, 1309, 1309, 1308, 1308, 1307, 1306, 1305, 1305, 1304, 1304, 1303, 1303, 1302, 1302, 1301, 1301, 1300, 1300, 1299, 1297, 1295, 1295, 1294, 1293, 1293, 1292, 1292, 1292, 1291, 1291, 1291, 1290, 1289, 1288, 1287, 1287, 1287, 1286, 1285, 1285, 1285, 1285, 1285, 1285, 1284, 1283, 1282, 1282, 1281, 1280, 1279, 1279, 1278, 1278, 1278, 1277, 1277, 1277, 1275, 1275, 1274, 1274, 1274, 1273, 1273, 1272, 1272, 1271, 1270, 1270, 1270, 1269, 1269, 1269, 1269, 1266, 1266, 1266, 1265, 1265, 1265, 1264, 1264, 1264, 1263, 1263, 1260, 1260, 1259, 1259, 1258, 1258, 1257, 1257, 1255, 1254, 1254, 1253, 1252, 1252, 1252, 1252, 1251, 1251, 1251, 1250, 1249, 1249, 1248, 1248, 1247, 1245, 1245, 1242, 1241, 1240, 1240, 1240, 1239, 1238, 1237, 1237, 1237, 1236, 1236, 1235, 1235, 1234, 1234, 1233, 1232, 1232, 1231, 1231, 1230, 1230, 1230, 1227, 1226, 1225, 1224, 1224, 1223, 1223, 1220, 1220, 1220, 1219, 1219, 1218, 1217, 1217, 1216, 1216, 1215, 1213, 1213, 1211, 1211, 1210, 1210, 1210, 1209, 1209, 1209, 1208, 1205, 1205, 1205, 1204, 1204, 1204, 1203, 1203, 1201, 1201, 1200, 1200, 1200, 1200, 1199, 1199, 1198, 1198, 1197, 1196, 1196, 1196, 1195, 1195, 1194, 1194, 1194, 1193, 1192, 1192, 1192, 1191, 1191, 1190, 1190, 1189, 1189, 1187, 1186, 1185, 1184, 1183, 1183, 1183, 1181, 1181, 1179, 1179, 1178, 1177, 1176, 1176, 1176, 1176, 1174, 1173, 1170, 1167, 1167, 1167, 1167, 1166, 1165, 1164, 1162, 1160, 1160, 1159, 1159, 1159, 1154, 1152, 1152, 1146, 1143, 1142, 1139, 1138, 1137, 1134, 1134, 1133, 1132, 1131, 1130, 1130, 1129, 1128, 1126, 1124, 1124, 1123, 1122, 1122, 1121, 1121, 1121, 1121, 1121, 1121, 1117, 1116, 1115, 1113, 1110, 1107, 1107, 1106, 1105, 1105, 1105, 1104, 1102, 1102, 1101, 1101, 1099, 1098, 1097, 1097, 1093, 1089, 1088, 1087, 1085, 1082, 1081, 1081, 1077, 1076, 1076, 1074, 1074, 1074, 1073, 1072, 1072, 1071, 1071, 1068, 1067, 1067, 1067, 1065, 1063, 1062, 1061, 1060, 1058, 1057, 1056, 1056, 1055, 1055, 1055, 1054, 1051, 1047, 1047, 1046, 1045, 1044, 1039, 1038, 1037, 1036, 1034, 1034, 1030, 1027, 1027, 1027, 1027, 1027, 1027, 1026, 1026, 1025, 1022, 1022, 1016, 1016, 1014, 1013, 1013, 1013, 1011, 1011, 1010, 1008, 1007, 1007, 1006, 1004, 1001, 998, 998, 996, 996, 995, 994, 992, 990, 989, 988, 981, 977, 976, 975, 974, 973, 972, 971, 971, 970, 969, 964, 961, 959, 952, 951, 949, 947, 942, 936, 929, 925, 924, 922, 922, 922, 921, 920, 916, 912, 911, 907, 902, 895, 880, 878, 876, 875, 874, 871, 869, 865, 859, 855, 852, 849, 847, 847, 827, 825, 820, 812, 805, 804, 800, 795, 794, 783, 777, 776, 685, 656]}, {"hovertemplate": "Elo: %{x:f}<br>In the top %{y:f}%<extra></extra>", "mode": "lines", "opacity": 0, "type": "scatter", "x": [2279, 2252, 2220, 2219, 2217, 2199, 2197, 2164, 2148, 2134, 2106, 2104, 2097, 2087, 2084, 2077, 2068, 2060, 2051, 2048, 2035, 2025, 2022, 2021, 2018, 2017, 2013, 2012, 2003, 1995, 1992, 1983, 1981, 1974, 1969, 1964, 1962, 1960, 1959, 1958, 1947, 1947, 1946, 1944, 1937, 1934, 1932, 1932, 1930, 1926, 1925, 1925, 1918, 1917, 1914, 1912, 1911, 1905, 1905, 1904, 1904, 1903, 1900, 1898, 1890, 1890, 1888, 1888, 1886, 1886, 1885, 1885, 1883, 1878, 1874, 1872, 1871, 1870, 1868, 1863, 1861, 1861, 1856, 1848, 1847, 1847, 1844, 1843, 1842, 1841, 1833, 1832, 1830, 1825, 1824, 1823, 1823, 1821, 1819, 1819, 1818, 1818, 1816, 1816, 1814, 1814, 1811, 1809, 1808, 1808, 1804, 1804, 1802, 1800, 1800, 1797, 1796, 1793, 1791, 1789, 1789, 1787, 1786, 1784, 1781, 1780, 1779, 1773, 1770, 1770, 1763, 1762, 1762, 1760, 1758, 1756, 1754, 1754, 1753, 1751, 1747, 1745, 1745, 1741, 1739, 1739, 1738, 1738, 1736, 1736, 1733, 1732, 1730, 1730, 1729, 1728, 1728, 1727, 1725, 1724, 1723, 1720, 1718, 1715, 1712, 1712, 1710, 1709, 1709, 1709, 1708, 1708, 1707, 1706, 1704, 1704, 1701, 1700, 1697, 1695, 1695, 1694, 1694, 1693, 1687, 1677, 1676, 1676, 1674, 1674, 1672, 1672, 1670, 1665, 1663, 1663, 1662, 1661, 1661, 1661, 1660, 1659, 1659, 1658, 1658, 1656, 1656, 1655, 1653, 1652, 1650, 1649, 1648, 1647, 1644, 1643, 1643, 1641, 1640, 1639, 1639, 1638, 1636, 1636, 1635, 1634, 1634, 1631, 1631, 1630, 1630, 1630, 1629, 1629, 1629, 1628, 1625, 1625, 1623, 1622, 1622, 1622, 1620, 1618, 1618, 1616, 1616, 1613, 1613, 1612, 1610, 1606, 1606, 1605, 1605, 1605, 1605, 1604, 1604, 1603, 1603, 1601, 1600, 1598, 1598, 1597, 1596, 1595, 1594, 1593, 1592, 1591, 1590, 1590, 1589, 1588, 1588, 1587, 1586, 1585, 1581, 1580, 1579, 1579, 1578, 1578, 1578, 1576, 1575, 1574, 1572, 1569, 1567, 1566, 1565, 1565, 1565, 1564, 1563, 1563, 1562, 1562, 1560, 1557, 1557, 1555, 1555, 1554, 1554, 1553, 1552, 1552, 1551, 1551, 1549, 1548, 1547, 1546, 1546, 1545, 1545, 1545, 1543, 1543, 1542, 1541, 1540, 1540, 1539, 1538, 1538, 1537, 1537, 1537, 1535, 1535, 1533, 1533, 1533, 1533, 1532, 1531, 1531, 1530, 1530, 1528, 1528, 1528, 1527, 1527, 1525, 1525, 1525, 1524, 1524, 1521, 1520, 1519, 1519, 1518, 1518, 1518, 1517, 1517, 1517, 1517, 1515, 1514, 1514, 1513, 1512, 1510, 1509, 1507, 1505, 1505, 1504, 1503, 1502, 1501, 1501, 1500, 1497, 1497, 1497, 1496, 1494, 1494, 1494, 1494, 1492, 1492, 1492, 1491, 1491, 1491, 1490, 1489, 1489, 1489, 1486, 1486, 1485, 1485, 1484, 1484, 1483, 1482, 1481, 1481, 1480, 1480, 1479, 1478, 1477, 1477, 1476, 1476, 1476, 1475, 1474, 1474, 1471, 1470, 1468, 1467, 1467, 1466, 1466, 1466, 1466, 1465, 1465, 1465, 1465, 1465, 1462, 1462, 1459, 1459, 1458, 1458, 1458, 1458, 1458, 1456, 1455, 1455, 1454, 1454, 1454, 1453, 1453, 1452, 1452, 1451, 1450, 1450, 1449, 1449, 1449, 1448, 1448, 1448, 1447, 1447, 1446, 1445, 1442, 1442, 1442, 1441, 1440, 1440, 1439, 1439, 1439, 1439, 1439, 1439, 1437, 1436, 1433, 1432, 1432, 1431, 1431, 1431, 1431, 1430, 1430, 1427, 1426, 1426, 1425, 1424, 1424, 1423, 1422, 1421, 1420, 1419, 1418, 1418, 1418, 1418, 1417, 1416, 1416, 1416, 1414, 1414, 1414, 1413, 1412, 1411, 1411, 1411, 1411, 1411, 1410, 1408, 1408, 1407, 1407, 1407, 1406, 1406, 1406, 1406, 1404, 1403, 1402, 1402, 1401, 1400, 1399, 1399, 1399, 1398, 1397, 1397, 1396, 1395, 1395, 1394, 1394, 1393, 1393, 1393, 1391, 1390, 1389, 1388, 1387, 1386, 1386, 1385, 1385, 1384, 1384, 1384, 1383, 1383, 1383, 1382, 1382, 1382, 1382, 1382, 1381, 1381, 1379, 1379, 1378, 1378, 1377, 1376, 1375, 1374, 1374, 1373, 1373, 1372, 1372, 1372, 1369, 1369, 1368, 1368, 1367, 1367, 1366, 1365, 1365, 1363, 1363, 1363, 1362, 1361, 1361, 1361, 1358, 1358, 1358, 1357, 1357, 1356, 1356, 1355, 1355, 1355, 1353, 1353, 1353, 1353, 1352, 1352, 1352, 1352, 1351, 1350, 1349, 1349, 1349, 1348, 1347, 1347, 1346, 1346, 1346, 1346, 1345, 1345, 1345, 1344, 1343, 1343, 1343, 1342, 1340, 1339, 1338, 1338, 1337, 1336, 1335, 1335, 1335, 1333, 1332, 1332, 1332, 1332, 1331, 1331, 1329, 1329, 1328, 1328, 1328, 1327, 1326, 1325, 1325, 1324, 1324, 1324, 1322, 1322, 1322, 1321, 1321, 1320, 1320, 1319, 1319, 1319, 1318, 1318, 1318, 1317, 1316, 1316, 1315, 1314, 1313, 1312, 1312, 1311, 1311, 1311, 1310, 1310, 1309, 1309, 1309, 1308, 1308, 1307, 1306, 1305, 1305, 1304, 1304, 1303, 1303, 1302, 1302, 1301, 1301, 1300, 1300, 1299, 1297, 1295, 1295, 1294, 1293, 1293, 1292, 1292, 1292, 1291, 1291, 1291, 1290, 1289, 1288, 1287, 1287, 1287, 1286, 1285, 1285, 1285, 1285, 1285, 1285, 1284, 1283, 1282, 1282, 1281, 1280, 1279, 1279, 1278, 1278, 1278, 1277, 1277, 1277, 1275, 1275, 1274, 1274, 1274, 1273, 1273, 1272, 1272, 1271, 1270, 1270, 1270, 1269, 1269, 1269, 1269, 1266, 1266, 1266, 1265, 1265, 1265, 1264, 1264, 1264, 1263, 1263, 1260, 1260, 1259, 1259, 1258, 1258, 1257, 1257, 1255, 1254, 1254, 1253, 1252, 1252, 1252, 1252, 1251, 1251, 1251, 1250, 1249, 1249, 1248, 1248, 1247, 1245, 1245, 1242, 1241, 1240, 1240, 1240, 1239, 1238, 1237, 1237, 1237, 1236, 1236, 1235, 1235, 1234, 1234, 1233, 1232, 1232, 1231, 1231, 1230, 1230, 1230, 1227, 1226, 1225, 1224, 1224, 1223, 1223, 1220, 1220, 1220, 1219, 1219, 1218, 1217, 1217, 1216, 1216, 1215, 1213, 1213, 1211, 1211, 1210, 1210, 1210, 1209, 1209, 1209, 1208, 1205, 1205, 1205, 1204, 1204, 1204, 1203, 1203, 1201, 1201, 1200, 1200, 1200, 1200, 1199, 1199, 1198, 1198, 1197, 1196, 1196, 1196, 1195, 1195, 1194, 1194, 1194, 1193, 1192, 1192, 1192, 1191, 1191, 1190, 1190, 1189, 1189, 1187, 1186, 1185, 1184, 1183, 1183, 1183, 1181, 1181, 1179, 1179, 1178, 1177, 1176, 1176, 1176, 1176, 1174, 1173, 1170, 1167, 1167, 1167, 1167, 1166, 1165, 1164, 1162, 1160, 1160, 1159, 1159, 1159, 1154, 1152, 1152, 1146, 1143, 1142, 1139, 1138, 1137, 1134, 1134, 1133, 1132, 1131, 1130, 1130, 1129, 1128, 1126, 1124, 1124, 1123, 1122, 1122, 1121, 1121, 1121, 1121, 1121, 1121, 1117, 1116, 1115, 1113, 1110, 1107, 1107, 1106, 1105, 1105, 1105, 1104, 1102, 1102, 1101, 1101, 1099, 1098, 1097, 1097, 1093, 1089, 1088, 1087, 1085, 1082, 1081, 1081, 1077, 1076, 1076, 1074, 1074, 1074, 1073, 1072, 1072, 1071, 1071, 1068, 1067, 1067, 1067, 1065, 1063, 1062, 1061, 1060, 1058, 1057, 1056, 1056, 1055, 1055, 1055, 1054, 1051, 1047, 1047, 1046, 1045, 1044, 1039, 1038, 1037, 1036, 1034, 1034, 1030, 1027, 1027, 1027, 1027, 1027, 1027, 1026, 1026, 1025, 1022, 1022, 1016, 1016, 1014, 1013, 1013, 1013, 1011, 1011, 1010, 1008, 1007, 1007, 1006, 1004, 1001, 998, 998, 996, 996, 995, 994, 992, 990, 989, 988, 981, 977, 976, 975, 974, 973, 972, 971, 971, 970, 969, 964, 961, 959, 952, 951, 949, 947, 942, 936, 929, 925, 924, 922, 922, 922, 921, 920, 916, 912, 911, 907, 902, 895, 880, 878, 876, 875, 874, 871, 869, 865, 859, 855, 852, 849, 847, 847, 827, 825, 820, 812, 805, 804, 800, 795, 794, 783, 777, 776, 685, 656], "y": [0.0, 0.09000000000000341, 0.18000000000000682, 0.269999999999996, 0.3499999999999943, 0.4399999999999977, 0.5300000000000011, 0.6200000000000045, 0.7099999999999937, 0.7999999999999972, 0.8900000000000006, 0.980000000000004, 1.0600000000000023, 1.1500000000000057, 1.2399999999999949, 1.3299999999999983, 1.4200000000000017, 1.5100000000000051, 1.5999999999999943, 1.6800000000000068, 1.769999999999996, 1.8599999999999994, 1.9500000000000028, 2.0400000000000063, 2.1299999999999955, 2.219999999999999, 2.299999999999997, 2.3900000000000006, 2.480000000000004, 2.569999999999993, 2.6599999999999966, 2.75, 2.8400000000000034, 2.930000000000007, 3.010000000000005, 3.0999999999999943, 3.1899999999999977, 3.280000000000001, 3.3700000000000045, 3.4599999999999937, 3.549999999999997, 3.549999999999997, 3.719999999999999, 3.8100000000000023, 3.9000000000000057, 3.989999999999995, 4.079999999999998, 4.079999999999998, 4.260000000000005, 4.340000000000003, 4.430000000000007, 4.430000000000007, 4.609999999999999, 4.700000000000003, 4.790000000000006, 4.8799999999999955, 4.959999999999994, 5.049999999999997, 5.049999999999997, 5.230000000000004, 5.230000000000004, 5.409999999999997, 5.5, 5.590000000000003, 5.670000000000002, 5.670000000000002, 5.849999999999994, 5.849999999999994, 6.030000000000001, 6.030000000000001, 6.209999999999994, 6.209999999999994, 6.3799999999999955, 6.469999999999999, 6.560000000000002, 6.650000000000006, 6.739999999999995, 6.829999999999998, 6.909999999999997, 7.0, 7.090000000000003, 7.090000000000003, 7.269999999999996, 7.359999999999999, 7.450000000000003, 7.450000000000003, 7.6200000000000045, 7.709999999999994, 7.799999999999997, 7.890000000000001, 7.980000000000004, 8.069999999999993, 8.159999999999997, 8.239999999999995, 8.329999999999998, 8.420000000000002, 8.420000000000002, 8.599999999999994, 8.689999999999998, 8.689999999999998, 8.870000000000005, 8.870000000000005, 9.040000000000006, 9.040000000000006, 9.219999999999999, 9.219999999999999, 9.400000000000006, 9.489999999999995, 9.569999999999993, 9.569999999999993, 9.75, 9.75, 9.930000000000007, 10.019999999999996, 10.019999999999996, 10.200000000000003, 10.280000000000001, 10.370000000000005, 10.459999999999994, 10.549999999999997, 10.549999999999997, 10.730000000000004, 10.819999999999993, 10.900000000000006, 10.989999999999995, 11.079999999999998, 11.170000000000002, 11.260000000000005, 11.349999999999994, 11.349999999999994, 11.519999999999996, 11.61, 11.61, 11.790000000000006, 11.879999999999995, 11.969999999999999, 12.060000000000002, 12.060000000000002, 12.230000000000004, 12.319999999999993, 12.409999999999997, 12.5, 12.5, 12.680000000000007, 12.769999999999996, 12.769999999999996, 12.939999999999998, 12.939999999999998, 13.120000000000005, 13.120000000000005, 13.299999999999997, 13.39, 13.480000000000004, 13.480000000000004, 13.650000000000006, 13.739999999999995, 13.739999999999995, 13.920000000000002, 14.010000000000005, 14.099999999999994, 14.180000000000007, 14.269999999999996, 14.36, 14.450000000000003, 14.540000000000006, 14.540000000000006, 14.719999999999999, 14.799999999999997, 14.799999999999997, 14.799999999999997, 15.069999999999993, 15.069999999999993, 15.25, 15.340000000000003, 15.430000000000007, 15.430000000000007, 15.599999999999994, 15.689999999999998, 15.780000000000001, 15.870000000000005, 15.870000000000005, 16.049999999999997, 16.049999999999997, 16.22, 16.310000000000002, 16.400000000000006, 16.489999999999995, 16.489999999999995, 16.67, 16.67, 16.840000000000003, 16.840000000000003, 17.019999999999996, 17.11, 17.200000000000003, 17.200000000000003, 17.379999999999995, 17.459999999999994, 17.459999999999994, 17.459999999999994, 17.730000000000004, 17.819999999999993, 17.819999999999993, 18.0, 18.0, 18.17, 18.17, 18.349999999999994, 18.439999999999998, 18.53, 18.620000000000005, 18.709999999999994, 18.790000000000006, 18.879999999999995, 18.97, 19.060000000000002, 19.060000000000002, 19.239999999999995, 19.33, 19.409999999999997, 19.409999999999997, 19.590000000000003, 19.680000000000007, 19.680000000000007, 19.86, 19.950000000000003, 19.950000000000003, 20.120000000000005, 20.120000000000005, 20.299999999999997, 20.299999999999997, 20.299999999999997, 20.569999999999993, 20.569999999999993, 20.569999999999993, 20.83, 20.92, 20.92, 21.099999999999994, 21.189999999999998, 21.189999999999998, 21.189999999999998, 21.450000000000003, 21.540000000000006, 21.540000000000006, 21.72, 21.72, 21.900000000000006, 21.900000000000006, 22.069999999999993, 22.159999999999997, 22.25, 22.25, 22.430000000000007, 22.430000000000007, 22.430000000000007, 22.430000000000007, 22.78, 22.78, 22.959999999999994, 22.959999999999994, 23.14, 23.230000000000004, 23.319999999999993, 23.319999999999993, 23.489999999999995, 23.58, 23.67, 23.760000000000005, 23.849999999999994, 23.939999999999998, 24.019999999999996, 24.11, 24.11, 24.290000000000006, 24.379999999999995, 24.379999999999995, 24.560000000000002, 24.650000000000006, 24.730000000000004, 24.819999999999993, 24.909999999999997, 25.0, 25.0, 25.180000000000007, 25.180000000000007, 25.180000000000007, 25.439999999999998, 25.53, 25.620000000000005, 25.709999999999994, 25.799999999999997, 25.89, 25.980000000000004, 26.060000000000002, 26.060000000000002, 26.060000000000002, 26.33, 26.42, 26.42, 26.599999999999994, 26.599999999999994, 26.769999999999996, 26.86, 26.86, 27.040000000000006, 27.040000000000006, 27.22, 27.22, 27.39, 27.480000000000004, 27.480000000000004, 27.659999999999997, 27.659999999999997, 27.840000000000003, 27.930000000000007, 28.010000000000005, 28.099999999999994, 28.099999999999994, 28.28, 28.28, 28.28, 28.549999999999997, 28.549999999999997, 28.72, 28.810000000000002, 28.900000000000006, 28.900000000000006, 29.08, 29.17, 29.17, 29.340000000000003, 29.340000000000003, 29.340000000000003, 29.61, 29.61, 29.790000000000006, 29.790000000000006, 29.790000000000006, 29.790000000000006, 30.14, 30.230000000000004, 30.230000000000004, 30.409999999999997, 30.409999999999997, 30.590000000000003, 30.590000000000003, 30.590000000000003, 30.849999999999994, 30.849999999999994, 31.03, 31.03, 31.03, 31.290000000000006, 31.290000000000006, 31.47, 31.560000000000002, 31.650000000000006, 31.650000000000006, 31.83, 31.83, 31.83, 32.09, 32.09, 32.09, 32.09, 32.45, 32.540000000000006, 32.540000000000006, 32.709999999999994, 32.8, 32.89, 32.980000000000004, 33.06999999999999, 33.16, 33.16, 33.33, 33.42, 33.510000000000005, 33.599999999999994, 33.599999999999994, 33.78, 33.870000000000005, 33.870000000000005, 33.870000000000005, 34.129999999999995, 34.22, 34.22, 34.22, 34.22, 34.56999999999999, 34.56999999999999, 34.56999999999999, 34.84, 34.84, 34.84, 35.11, 35.2, 35.2, 35.2, 35.459999999999994, 35.459999999999994, 35.64, 35.64, 35.81999999999999, 35.81999999999999, 35.989999999999995, 36.08, 36.17, 36.17, 36.35, 36.35, 36.52, 36.61, 36.7, 36.7, 36.88, 36.88, 36.88, 37.15, 37.23, 37.23, 37.41, 37.5, 37.59, 37.68, 37.68, 37.85, 37.85, 37.85, 37.85, 38.21, 38.21, 38.21, 38.21, 38.21, 38.65, 38.65, 38.83, 38.83, 39.01, 39.01, 39.01, 39.01, 39.01, 39.45, 39.54, 39.54, 39.72, 39.72, 39.72, 39.98, 39.98, 40.16, 40.16, 40.34, 40.43, 40.43, 40.6, 40.6, 40.6, 40.87, 40.87, 40.87, 41.13, 41.13, 41.31, 41.4, 41.49, 41.49, 41.49, 41.76, 41.84, 41.84, 42.02, 42.02, 42.02, 42.02, 42.02, 42.02, 42.55, 42.64, 42.73, 42.82, 42.82, 43.0, 43.0, 43.0, 43.0, 43.35, 43.35, 43.53, 43.62, 43.62, 43.79, 43.88, 43.88, 44.06, 44.15, 44.24, 44.33, 44.41, 44.5, 44.5, 44.5, 44.5, 44.86, 44.95, 44.95, 44.95, 45.21, 45.21, 45.21, 45.48, 45.57, 45.66, 45.66, 45.66, 45.66, 45.66, 46.1, 46.19, 46.19, 46.37, 46.37, 46.37, 46.63, 46.63, 46.63, 46.63, 46.99, 47.07, 47.16, 47.16, 47.34, 47.43, 47.52, 47.52, 47.52, 47.78, 47.87, 47.87, 48.05, 48.14, 48.14, 48.32, 48.32, 48.49, 48.49, 48.49, 48.76, 48.85, 48.94, 49.02, 49.11, 49.2, 49.2, 49.38, 49.38, 49.56, 49.56, 49.56, 49.82, 49.82, 49.82, 50.09, 50.09, 50.09, 50.09, 50.09, 50.53, 50.53, 50.71, 50.71, 50.89, 50.89, 51.06, 51.15, 51.24, 51.33, 51.33, 51.51, 51.51, 51.68, 51.68, 51.68, 51.95, 51.95, 52.13, 52.13, 52.3, 52.3, 52.48, 52.57, 52.57, 52.75, 52.75, 52.75, 53.01, 53.1, 53.1, 53.1, 53.37, 53.37, 53.37, 53.63, 53.63, 53.81, 53.81, 53.99, 53.99, 53.99, 54.26, 54.26, 54.26, 54.26, 54.61, 54.61, 54.61, 54.61, 54.96, 55.05, 55.14, 55.14, 55.14, 55.41, 55.5, 55.5, 55.67, 55.67, 55.67, 55.67, 56.03, 56.03, 56.03, 56.29, 56.38, 56.38, 56.38, 56.65, 56.74, 56.83, 56.91, 56.91, 57.09, 57.18, 57.27, 57.27, 57.27, 57.54, 57.62, 57.62, 57.62, 57.62, 57.98, 57.98, 58.16, 58.16, 58.33, 58.33, 58.33, 58.6, 58.69, 58.78, 58.78, 58.95, 58.95, 58.95, 59.22, 59.22, 59.22, 59.49, 59.49, 59.66, 59.66, 59.84, 59.84, 59.84, 60.11, 60.11, 60.11, 60.37, 60.46, 60.46, 60.64, 60.73, 60.82, 60.9, 60.9, 61.08, 61.08, 61.08, 61.35, 61.35, 61.52, 61.52, 61.52, 61.79, 61.79, 61.97, 62.06, 62.15, 62.15, 62.32, 62.32, 62.5, 62.5, 62.68, 62.68, 62.85, 62.85, 63.03, 63.03, 63.21, 63.3, 63.39, 63.39, 63.56, 63.65, 63.65, 63.83, 63.83, 63.83, 64.1, 64.1, 64.1, 64.36, 64.45, 64.53999999999999, 64.63, 64.63, 64.63, 64.89, 64.97999999999999, 64.97999999999999, 64.97999999999999, 64.97999999999999, 64.97999999999999, 64.97999999999999, 65.50999999999999, 65.6, 65.69, 65.69, 65.87, 65.96000000000001, 66.05, 66.05, 66.22, 66.22, 66.22, 66.49000000000001, 66.49000000000001, 66.49000000000001, 66.75999999999999, 66.75999999999999, 66.93, 66.93, 66.93, 67.2, 67.2, 67.38, 67.38, 67.55, 67.64, 67.64, 67.64, 67.91, 67.91, 67.91, 67.91, 68.26, 68.26, 68.26, 68.53, 68.53, 68.53, 68.78999999999999, 68.78999999999999, 68.78999999999999, 69.06, 69.06, 69.24, 69.24, 69.41, 69.41, 69.59, 69.59, 69.77, 69.77, 69.95, 70.03999999999999, 70.03999999999999, 70.21000000000001, 70.3, 70.3, 70.3, 70.3, 70.66, 70.66, 70.66, 70.92, 71.01, 71.01, 71.19, 71.19, 71.37, 71.45, 71.45, 71.63, 71.72, 71.81, 71.81, 71.81, 72.07, 72.16, 72.25, 72.25, 72.25, 72.52, 72.52, 72.7, 72.7, 72.87, 72.87, 73.05, 73.14, 73.14, 73.32, 73.32, 73.49, 73.49, 73.49, 73.76, 73.85, 73.94, 74.02, 74.02, 74.2, 74.2, 74.38, 74.38, 74.38, 74.65, 74.65, 74.82, 74.91, 74.91, 75.09, 75.09, 75.27, 75.35, 75.35, 75.53, 75.53, 75.71000000000001, 75.71000000000001, 75.71000000000001, 75.98, 75.98, 75.98, 76.24, 76.33, 76.33, 76.33, 76.6, 76.6, 76.6, 76.86, 76.86, 77.03999999999999, 77.03999999999999, 77.22, 77.22, 77.22, 77.22, 77.57, 77.57, 77.75, 77.75, 77.93, 78.01, 78.01, 78.01, 78.28, 78.28, 78.46000000000001, 78.46000000000001, 78.46000000000001, 78.72, 78.81, 78.81, 78.81, 79.08, 79.08, 79.26, 79.26, 79.43, 79.43, 79.61, 79.7, 79.78999999999999, 79.88, 79.96000000000001, 79.96000000000001, 79.96000000000001, 80.23, 80.23, 80.41, 80.41, 80.59, 80.67, 80.76, 80.76, 80.76, 80.76, 81.12, 81.21000000000001, 81.28999999999999, 81.38, 81.38, 81.38, 81.38, 81.74, 81.83, 81.91, 82.0, 82.09, 82.09, 82.27, 82.27, 82.27, 82.53999999999999, 82.62, 82.62, 82.8, 82.89, 82.98, 83.07, 83.16, 83.24, 83.33, 83.33, 83.51, 83.6, 83.69, 83.78, 83.78, 83.95, 84.03999999999999, 84.13, 84.22, 84.22, 84.4, 84.49, 84.49, 84.66, 84.66, 84.66, 84.66, 84.66, 84.66, 85.2, 85.28, 85.37, 85.46000000000001, 85.55, 85.64, 85.64, 85.82, 85.9, 85.9, 85.9, 86.17, 86.26, 86.26, 86.44, 86.44, 86.61, 86.7, 86.78999999999999, 86.78999999999999, 86.97, 87.06, 87.15, 87.23, 87.32, 87.41, 87.5, 87.5, 87.68, 87.77, 87.77, 87.94, 87.94, 87.94, 88.21000000000001, 88.3, 88.3, 88.48, 88.48, 88.65, 88.74, 88.74, 88.74, 89.01, 89.1, 89.18, 89.27, 89.36, 89.45, 89.53999999999999, 89.63, 89.63, 89.8, 89.8, 89.8, 90.07, 90.16, 90.25, 90.25, 90.43, 90.51, 90.6, 90.69, 90.78, 90.87, 90.96000000000001, 91.05, 91.05, 91.22, 91.31, 91.31, 91.31, 91.31, 91.31, 91.31, 91.84, 91.84, 92.02, 92.11, 92.11, 92.29, 92.29, 92.46, 92.55, 92.55, 92.55, 92.82, 92.82, 93.0, 93.09, 93.17, 93.17, 93.35, 93.44, 93.53, 93.62, 93.62, 93.79, 93.79, 93.97, 94.06, 94.15, 94.24, 94.33, 94.41, 94.5, 94.59, 94.68, 94.77, 94.86, 94.95, 95.04, 95.12, 95.12, 95.3, 95.39, 95.48, 95.57, 95.66, 95.74, 95.83, 95.92, 96.01, 96.1, 96.19, 96.28, 96.37, 96.45, 96.54, 96.54, 96.54, 96.81, 96.9, 96.99, 97.07, 97.16, 97.25, 97.34, 97.43, 97.52, 97.61, 97.7, 97.78, 97.87, 97.96, 98.05, 98.14, 98.23, 98.32, 98.4, 98.49, 98.58, 98.58, 98.76, 98.85, 98.94, 99.02, 99.11, 99.2, 99.29, 99.38, 99.47, 99.56, 99.65, 99.73, 99.82, 99.91]}],
                        {"barmode": "overlay", "hovermode": "x unified", "showlegend": false, "template": {"data": {"bar": [{"error_x": {"color": "#2a3f5f"}, "error_y": {"color": "#2a3f5f"}, "marker": {"line": {"color": "#E5ECF6", "width": 0.5}}, "type": "bar"}], "barpolar": [{"marker": {"line": {"color": "#E5ECF6", "width": 0.5}}, "type": "barpolar"}], "carpet": [{"aaxis": {"endlinecolor": "#2a3f5f", "gridcolor": "white", "linecolor": "white", "minorgridcolor": "white", "startlinecolor": "#2a3f5f"}, "baxis": {"endlinecolor": "#2a3f5f", "gridcolor": "white", "linecolor": "white", "minorgridcolor": "white", "startlinecolor": "#2a3f5f"}, "type": "carpet"}], "choropleth": [{"colorbar": {"outlinewidth": 0, "ticks": ""}, "type": "choropleth"}], "contour": [{"colorbar": {"outlinewidth": 0, "ticks": ""}, "colorscale": [[0.0, "#0d0887"], [0.1111111111111111, "#46039f"], [0.2222222222222222, "#7201a8"], [0.3333333333333333, "#9c179e"], [0.4444444444444444, "#bd3786"], [0.5555555555555556, "#d8576b"], [0.6666666666666666, "#ed7953"], [0.7777777777777778, "#fb9f3a"], [0.8888888888888888, "#fdca26"], [1.0, "#f0f921"]], "type": "contour"}], "contourcarpet": [{"colorbar": {"outlinewidth": 0, "ticks": ""}, "type": "contourcarpet"}], "heatmap": [{"colorbar": {"outlinewidth": 0, "ticks": ""}, "colorscale": [[0.0, "#0d0887"], [0.1111111111111111, "#46039f"], [0.2222222222222222, "#7201a8"], [0.3333333333333333, "#9c179e"], [0.4444444444444444, "#bd3786"], [0.5555555555555556, "#d8576b"], [0.6666666666666666, "#ed7953"], [0.7777777777777778, "#fb9f3a"], [0.8888888888888888, "#fdca26"], [1.0, "#f0f921"]], "type": "heatmap"}], "heatmapgl": [{"colorbar": {"outlinewidth": 0, "ticks": ""}, "colorscale": [[0.0, "#0d0887"], [0.1111111111111111, "#46039f"], [0.2222222222222222, "#7201a8"], [0.3333333333333333, "#9c179e"], [0.4444444444444444, "#bd3786"], [0.5555555555555556, "#d8576b"], [0.6666666666666666, "#ed7953"], [0.7777777777777778, "#fb9f3a"], [0.8888888888888888, "#fdca26"], [1.0, "#f0f921"]], "type": "heatmapgl"}], "histogram": [{"marker": {"colorbar": {"outlinewidth": 0, "ticks": ""}}, "type": "histogram"}], "histogram2d": [{"colorbar": {"outlinewidth": 0, "ticks": ""}, "colorscale": [[0.0, "#0d0887"], [0.1111111111111111, "#46039f"], [0.2222222222222222, "#7201a8"], [0.3333333333333333, "#9c179e"], [0.4444444444444444, "#bd3786"], [0.5555555555555556, "#d8576b"], [0.6666666666666666, "#ed7953"], [0.7777777777777778, "#fb9f3a"], [0.8888888888888888, "#fdca26"], [1.0, "#f0f921"]], "type": "histogram2d"}], "histogram2dcontour": [{"colorbar": {"outlinewidth": 0, "ticks": ""}, "colorscale": [[0.0, "#0d0887"], [0.1111111111111111, "#46039f"], [0.2222222222222222, "#7201a8"], [0.3333333333333333, "#9c179e"], [0.4444444444444444, "#bd3786"], [0.5555555555555556, "#d8576b"], [0.6666666666666666, "#ed7953"], [0.7777777777777778, "#fb9f3a"], [0.8888888888888888, "#fdca26"], [1.0, "#f0f921"]], "type": "histogram2dcontour"}], "mesh3d": [{"colorbar": {"outlinewidth": 0, "ticks": ""}, "type": "mesh3d"}], "parcoords": [{"line": {"colorbar": {"outlinewidth": 0, "ticks": ""}}, "type": "parcoords"}], "pie": [{"automargin": true, "type": "pie"}], "scatter": [{"marker": {"colorbar": {"outlinewidth": 0, "ticks": ""}}, "type": "scatter"}], "scatter3d": [{"line": {"colorbar": {"outlinewidth": 0, "ticks": ""}}, "marker": {"colorbar": {"outlinewidth": 0, "ticks": ""}}, "type": "scatter3d"}], "scattercarpet": [{"marker": {"colorbar": {"outlinewidth": 0, "ticks": ""}}, "type": "scattercarpet"}], "scattergeo": [{"marker": {"colorbar": {"outlinewidth": 0, "ticks": ""}}, "type": "scattergeo"}], "scattergl": [{"marker": {"colorbar": {"outlinewidth": 0, "ticks": ""}}, "type": "scattergl"}], "scattermapbox": [{"marker": {"colorbar": {"outlinewidth": 0, "ticks": ""}}, "type": "scattermapbox"}], "scatterpolar": [{"marker": {"colorbar": {"outlinewidth": 0, "ticks": ""}}, "type": "scatterpolar"}], "scatterpolargl": [{"marker": {"colorbar": {"outlinewidth": 0, "ticks": ""}}, "type": "scatterpolargl"}], "scatterternary": [{"marker": {"colorbar": {"outlinewidth": 0, "ticks": ""}}, "type": "scatterternary"}], "surface": [{"colorbar": {"outlinewidth": 0, "ticks": ""}, "colorscale": [[0.0, "#0d0887"], [0.1111111111111111, "#46039f"], [0.2222222222222222, "#7201a8"], [0.3333333333333333, "#9c179e"], [0.4444444444444444, "#bd3786"], [0.5555555555555556, "#d8576b"], [0.6666666666666666, "#ed7953"], [0.7777777777777778, "#fb9f3a"], [0.8888888888888888, "#fdca26"], [1.0, "#f0f921"]], "type": "surface"}], "table": [{"cells": {"fill": {"color": "#EBF0F8"}, "line": {"color": "white"}}, "header": {"fill": {"color": "#C8D4E3"}, "line": {"color": "white"}}, "type": "table"}]}, "layout": {"annotationdefaults": {"arrowcolor": "#2a3f5f", "arrowhead": 0, "arrowwidth": 1}, "coloraxis": {"colorbar": {"outlinewidth": 0, "ticks": ""}}, "colorscale": {"diverging": [[0, "#8e0152"], [0.1, "#c51b7d"], [0.2, "#de77ae"], [0.3, "#f1b6da"], [0.4, "#fde0ef"], [0.5, "#f7f7f7"], [0.6, "#e6f5d0"], [0.7, "#b8e186"], [0.8, "#7fbc41"], [0.9, "#4d9221"], [1, "#276419"]], "sequential": [[0.0, "#0d0887"], [0.1111111111111111, "#46039f"], [0.2222222222222222, "#7201a8"], [0.3333333333333333, "#9c179e"], [0.4444444444444444, "#bd3786"], [0.5555555555555556, "#d8576b"], [0.6666666666666666, "#ed7953"], [0.7777777777777778, "#fb9f3a"], [0.8888888888888888, "#fdca26"], [1.0, "#f0f921"]], "sequentialminus": [[0.0, "#0d0887"], [0.1111111111111111, "#46039f"], [0.2222222222222222, "#7201a8"], [0.3333333333333333, "#9c179e"], [0.4444444444444444, "#bd3786"], [0.5555555555555556, "#d8576b"], [0.6666666666666666, "#ed7953"], [0.7777777777777778, "#fb9f3a"], [0.8888888888888888, "#fdca26"], [1.0, "#f0f921"]]}, "colorway": ["#636efa", "#EF553B", "#00cc96", "#ab63fa", "#FFA15A", "#19d3f3", "#FF6692", "#B6E880", "#FF97FF", "#FECB52"], "font": {"color": "#2a3f5f"}, "geo": {"bgcolor": "white", "lakecolor": "white", "landcolor": "#E5ECF6", "showlakes": true, "showland": true, "subunitcolor": "white"}, "hoverlabel": {"align": "left"}, "hovermode": "closest", "mapbox": {"style": "light"}, "paper_bgcolor": "white", "plot_bgcolor": "#E5ECF6", "polar": {"angularaxis": {"gridcolor": "white", "linecolor": "white", "ticks": ""}, "bgcolor": "#E5ECF6", "radialaxis": {"gridcolor": "white", "linecolor": "white", "ticks": ""}}, "scene": {"xaxis": {"backgroundcolor": "#E5ECF6", "gridcolor": "white", "gridwidth": 2, "linecolor": "white", "showbackground": true, "ticks": "", "zerolinecolor": "white"}, "yaxis": {"backgroundcolor": "#E5ECF6", "gridcolor": "white", "gridwidth": 2, "linecolor": "white", "showbackground": true, "ticks": "", "zerolinecolor": "white"}, "zaxis": {"backgroundcolor": "#E5ECF6", "gridcolor": "white", "gridwidth": 2, "linecolor": "white", "showbackground": true, "ticks": "", "zerolinecolor": "white"}}, "shapedefaults": {"line": {"color": "#2a3f5f"}}, "ternary": {"aaxis": {"gridcolor": "white", "linecolor": "white", "ticks": ""}, "baxis": {"gridcolor": "white", "linecolor": "white", "ticks": ""}, "bgcolor": "#E5ECF6", "caxis": {"gridcolor": "white", "linecolor": "white", "ticks": ""}}, "title": {"x": 0.05}, "xaxis": {"automargin": true, "gridcolor": "white", "linecolor": "white", "ticks": "", "title": {"standoff": 15}, "zerolinecolor": "white", "zerolinewidth": 2}, "yaxis": {"automargin": true, "gridcolor": "white", "linecolor": "white", "ticks": "", "title": {"standoff": 15}, "zerolinecolor": "white", "zerolinewidth": 2}}}},
                        {"responsive": true}
                    )
                };
                
            </script>
        </div>
</body>
</html>